solid robotiq_85_knuckle_link
   facet normal -5.503190e-002 -0.000000e+000 9.984846e-001
      outer loop
         vertex -2.757914e-008 -5.500000e+000 7.500000e+000
         vertex -2.757914e-008 5.500000e+000 7.500000e+000
         vertex -1.234459e+000 5.500000e+000 7.397710e+000
      endloop
   endfacet
   facet normal -1.100638e-001 -0.000000e+000 9.939245e-001
      outer loop
         vertex -2.757914e-008 -5.500000e+000 7.500000e+000
         vertex -1.234459e+000 5.500000e+000 7.397710e+000
         vertex -1.234459e+000 -5.500000e+000 7.397710e+000
      endloop
   endfacet
   facet normal -2.186265e-001 0.000000e+000 9.758086e-001
      outer loop
         vertex -1.234459e+000 -5.500000e+000 7.397710e+000
         vertex -1.234459e+000 5.500000e+000 7.397710e+000
         vertex -2.435246e+000 5.500000e+000 7.093629e+000
      endloop
   endfacet
   facet normal -2.721573e-001 0.000000e+000 9.622528e-001
      outer loop
         vertex -1.234459e+000 -5.500000e+000 7.397710e+000
         vertex -2.435246e+000 5.500000e+000 7.093629e+000
         vertex -2.435246e+000 -5.500000e+000 7.093629e+000
      endloop
   endfacet
   facet normal -3.762575e-001 0.000000e+000 9.265151e-001
      outer loop
         vertex -2.435246e+000 -5.500000e+000 7.093629e+000
         vertex -2.435246e+000 5.500000e+000 7.093629e+000
         vertex -3.569606e+000 5.500000e+000 6.596053e+000
      endloop
   endfacet
   facet normal -4.268270e-001 0.000000e+000 9.043333e-001
      outer loop
         vertex -2.435246e+000 -5.500000e+000 7.093629e+000
         vertex -3.569606e+000 5.500000e+000 6.596053e+000
         vertex -3.569606e+000 -5.500000e+000 6.596053e+000
      endloop
   endfacet
   facet normal -5.236253e-001 0.000000e+000 8.519487e-001
      outer loop
         vertex -3.569606e+000 -5.500000e+000 6.596053e+000
         vertex -3.569606e+000 5.500000e+000 6.596053e+000
         vertex -4.606595e+000 5.500000e+000 5.918554e+000
      endloop
   endfacet
   facet normal -5.698540e-001 0.000000e+000 8.217459e-001
      outer loop
         vertex -3.569606e+000 -5.500000e+000 6.596053e+000
         vertex -4.606595e+000 5.500000e+000 5.918554e+000
         vertex -4.606595e+000 -5.500000e+000 5.918554e+000
      endloop
   endfacet
   facet normal -6.567098e-001 0.000000e+000 7.541434e-001
      outer loop
         vertex -4.606595e+000 -5.500000e+000 5.918554e+000
         vertex -4.606595e+000 5.500000e+000 5.918554e+000
         vertex -5.517930e+000 5.500000e+000 5.079612e+000
      endloop
   endfacet
   facet normal -6.973369e-001 0.000000e+000 7.167435e-001
      outer loop
         vertex -4.606595e+000 -5.500000e+000 5.918554e+000
         vertex -5.517930e+000 5.500000e+000 5.079612e+000
         vertex -5.517930e+000 -5.500000e+000 5.079612e+000
      endloop
   endfacet
   facet normal -7.718811e-001 0.000000e+000 6.357669e-001
      outer loop
         vertex -5.517930e+000 -5.500000e+000 5.079612e+000
         vertex -5.517930e+000 5.500000e+000 5.079612e+000
         vertex -6.278749e+000 5.500000e+000 4.102111e+000
      endloop
   endfacet
   facet normal -8.057982e-001 0.000000e+000 5.921901e-001
      outer loop
         vertex -5.517930e+000 -5.500000e+000 5.079612e+000
         vertex -6.278749e+000 5.500000e+000 4.102111e+000
         vertex -6.278749e+000 -5.500000e+000 4.102111e+000
      endloop
   endfacet
   facet normal -8.659974e-001 0.000000e+000 5.000484e-001
      outer loop
         vertex -6.278749e+000 -5.500000e+000 4.102111e+000
         vertex -6.278749e+000 5.500000e+000 4.102111e+000
         vertex -6.868300e+000 5.500000e+000 3.012716e+000
      endloop
   endfacet
   facet normal -8.922795e-001 0.000000e+000 4.514835e-001
      outer loop
         vertex -6.278749e+000 -5.500000e+000 4.102111e+000
         vertex -6.868300e+000 5.500000e+000 3.012716e+000
         vertex -6.868300e+000 -5.500000e+000 3.012716e+000
      endloop
   endfacet
   facet normal -9.364916e-001 0.000000e+000 3.506899e-001
      outer loop
         vertex -6.868300e+000 -5.500000e+000 3.012716e+000
         vertex -6.868300e+000 5.500000e+000 3.012716e+000
         vertex -7.270502e+000 5.500000e+000 1.841141e+000
      endloop
   endfacet
   facet normal -9.544217e-001 0.000000e+000 2.984615e-001
      outer loop
         vertex -6.868300e+000 -5.500000e+000 3.012716e+000
         vertex -7.270502e+000 5.500000e+000 1.841141e+000
         vertex -7.270502e+000 -5.500000e+000 1.841141e+000
      endloop
   endfacet
   facet normal -9.814408e-001 0.000000e+000 1.917655e-001
      outer loop
         vertex -7.270502e+000 -5.500000e+000 1.841141e+000
         vertex -7.270502e+000 5.500000e+000 1.841141e+000
         vertex -7.474384e+000 5.500000e+000 6.193451e-001
      endloop
   endfacet
   facet normal -9.905298e-001 0.000000e+000 1.372982e-001
      outer loop
         vertex -7.270502e+000 -5.500000e+000 1.841141e+000
         vertex -7.474384e+000 5.500000e+000 6.193451e-001
         vertex -7.474384e+000 -5.500000e+000 6.193451e-001
      endloop
   endfacet
   facet normal -9.996188e-001 0.000000e+000 2.761025e-002
      outer loop
         vertex -7.474384e+000 -5.500000e+000 6.193451e-001
         vertex -7.474384e+000 5.500000e+000 6.193451e-001
         vertex -7.474384e+000 5.500000e+000 -6.193451e-001
      endloop
   endfacet
   facet normal -9.996188e-001 0.000000e+000 -2.761026e-002
      outer loop
         vertex -7.474384e+000 -5.500000e+000 6.193451e-001
         vertex -7.474384e+000 5.500000e+000 -6.193451e-001
         vertex -7.474384e+000 -5.500000e+000 -6.193451e-001
      endloop
   endfacet
   facet normal -9.905298e-001 0.000000e+000 -1.372982e-001
      outer loop
         vertex -7.474384e+000 -5.500000e+000 -6.193451e-001
         vertex -7.474384e+000 5.500000e+000 -6.193451e-001
         vertex -7.270502e+000 5.500000e+000 -1.841141e+000
      endloop
   endfacet
   facet normal -9.814408e-001 0.000000e+000 -1.917655e-001
      outer loop
         vertex -7.474384e+000 -5.500000e+000 -6.193451e-001
         vertex -7.270502e+000 5.500000e+000 -1.841141e+000
         vertex -7.270502e+000 -5.500000e+000 -1.841141e+000
      endloop
   endfacet
   facet normal -9.544217e-001 0.000000e+000 -2.984614e-001
      outer loop
         vertex -7.270502e+000 -5.500000e+000 -1.841141e+000
         vertex -7.270502e+000 5.500000e+000 -1.841141e+000
         vertex -6.868299e+000 5.500000e+000 -3.012716e+000
      endloop
   endfacet
   facet normal -9.364916e-001 0.000000e+000 -3.506899e-001
      outer loop
         vertex -7.270502e+000 -5.500000e+000 -1.841141e+000
         vertex -6.868299e+000 5.500000e+000 -3.012716e+000
         vertex -6.868299e+000 -5.500000e+000 -3.012716e+000
      endloop
   endfacet
   facet normal -8.922795e-001 0.000000e+000 -4.514835e-001
      outer loop
         vertex -6.868299e+000 -5.500000e+000 -3.012716e+000
         vertex -6.868299e+000 5.500000e+000 -3.012716e+000
         vertex -6.278749e+000 5.500000e+000 -4.102111e+000
      endloop
   endfacet
   facet normal -8.659974e-001 0.000000e+000 -5.000485e-001
      outer loop
         vertex -6.868299e+000 -5.500000e+000 -3.012716e+000
         vertex -6.278749e+000 5.500000e+000 -4.102111e+000
         vertex -6.278749e+000 -5.500000e+000 -4.102111e+000
      endloop
   endfacet
   facet normal -8.057982e-001 0.000000e+000 -5.921902e-001
      outer loop
         vertex -6.278749e+000 -5.500000e+000 -4.102111e+000
         vertex -6.278749e+000 5.500000e+000 -4.102111e+000
         vertex -5.517930e+000 5.500000e+000 -5.079612e+000
      endloop
   endfacet
   facet normal -7.718811e-001 0.000000e+000 -6.357669e-001
      outer loop
         vertex -6.278749e+000 -5.500000e+000 -4.102111e+000
         vertex -5.517930e+000 5.500000e+000 -5.079612e+000
         vertex -5.517930e+000 -5.500000e+000 -5.079612e+000
      endloop
   endfacet
   facet normal -6.973369e-001 0.000000e+000 -7.167435e-001
      outer loop
         vertex -5.517930e+000 -5.500000e+000 -5.079612e+000
         vertex -5.517930e+000 5.500000e+000 -5.079612e+000
         vertex -4.606595e+000 5.500000e+000 -5.918554e+000
      endloop
   endfacet
   facet normal -6.567098e-001 0.000000e+000 -7.541433e-001
      outer loop
         vertex -5.517930e+000 -5.500000e+000 -5.079612e+000
         vertex -4.606595e+000 5.500000e+000 -5.918554e+000
         vertex -4.606595e+000 -5.500000e+000 -5.918554e+000
      endloop
   endfacet
   facet normal -5.698540e-001 0.000000e+000 -8.217459e-001
      outer loop
         vertex -4.606595e+000 -5.500000e+000 -5.918554e+000
         vertex -4.606595e+000 5.500000e+000 -5.918554e+000
         vertex -3.569606e+000 5.500000e+000 -6.596054e+000
      endloop
   endfacet
   facet normal -5.236253e-001 0.000000e+000 -8.519487e-001
      outer loop
         vertex -4.606595e+000 -5.500000e+000 -5.918554e+000
         vertex -3.569606e+000 5.500000e+000 -6.596054e+000
         vertex -3.569606e+000 -5.500000e+000 -6.596054e+000
      endloop
   endfacet
   facet normal -4.268270e-001 0.000000e+000 -9.043333e-001
      outer loop
         vertex -3.569606e+000 -5.500000e+000 -6.596054e+000
         vertex -3.569606e+000 5.500000e+000 -6.596054e+000
         vertex -2.435246e+000 5.500000e+000 -7.093629e+000
      endloop
   endfacet
   facet normal -3.762576e-001 0.000000e+000 -9.265151e-001
      outer loop
         vertex -3.569606e+000 -5.500000e+000 -6.596054e+000
         vertex -2.435246e+000 5.500000e+000 -7.093629e+000
         vertex -2.435246e+000 -5.500000e+000 -7.093629e+000
      endloop
   endfacet
   facet normal -2.721573e-001 0.000000e+000 -9.622528e-001
      outer loop
         vertex -2.435246e+000 -5.500000e+000 -7.093629e+000
         vertex -2.435246e+000 5.500000e+000 -7.093629e+000
         vertex -1.234459e+000 5.500000e+000 -7.397710e+000
      endloop
   endfacet
   facet normal -2.186265e-001 0.000000e+000 -9.758086e-001
      outer loop
         vertex -2.435246e+000 -5.500000e+000 -7.093629e+000
         vertex -1.234459e+000 5.500000e+000 -7.397710e+000
         vertex -1.234459e+000 -5.500000e+000 -7.397710e+000
      endloop
   endfacet
   facet normal -1.100638e-001 0.000000e+000 -9.939245e-001
      outer loop
         vertex -1.234459e+000 -5.500000e+000 -7.397710e+000
         vertex -1.234459e+000 5.500000e+000 -7.397710e+000
         vertex 2.757914e-008 5.500000e+000 -7.500000e+000
      endloop
   endfacet
   facet normal -5.503193e-002 0.000000e+000 -9.984846e-001
      outer loop
         vertex -1.234459e+000 -5.500000e+000 -7.397710e+000
         vertex 2.757914e-008 5.500000e+000 -7.500000e+000
         vertex 2.757914e-008 -5.500000e+000 -7.500000e+000
      endloop
   endfacet
   facet normal 2.761960e-009 0.000000e+000 -1.000000e+000
      outer loop
         vertex 3.150000e+001 -5.500000e+000 -7.500000e+000
         vertex 2.757914e-008 -5.500000e+000 -7.500000e+000
         vertex 3.150000e+001 5.500000e+000 -7.500000e+000
      endloop
   endfacet
   facet normal 2.761960e-009 0.000000e+000 -1.000000e+000
      outer loop
         vertex 3.150000e+001 5.500000e+000 -7.500000e+000
         vertex 2.757914e-008 -5.500000e+000 -7.500000e+000
         vertex 2.757914e-008 5.500000e+000 -7.500000e+000
      endloop
   endfacet
   facet normal 5.503190e-002 0.000000e+000 -9.984846e-001
      outer loop
         vertex 3.150000e+001 -5.500000e+000 -7.500000e+000
         vertex 3.150000e+001 5.500000e+000 -7.500000e+000
         vertex 3.273446e+001 5.500000e+000 -7.397710e+000
      endloop
   endfacet
   facet normal 1.100638e-001 0.000000e+000 -9.939245e-001
      outer loop
         vertex 3.150000e+001 -5.500000e+000 -7.500000e+000
         vertex 3.273446e+001 5.500000e+000 -7.397710e+000
         vertex 3.273446e+001 -5.500000e+000 -7.397710e+000
      endloop
   endfacet
   facet normal 2.186265e-001 0.000000e+000 -9.758086e-001
      outer loop
         vertex 3.273446e+001 -5.500000e+000 -7.397710e+000
         vertex 3.273446e+001 5.500000e+000 -7.397710e+000
         vertex 3.393525e+001 5.500000e+000 -7.093629e+000
      endloop
   endfacet
   facet normal 2.721573e-001 0.000000e+000 -9.622528e-001
      outer loop
         vertex 3.273446e+001 -5.500000e+000 -7.397710e+000
         vertex 3.393525e+001 5.500000e+000 -7.093629e+000
         vertex 3.393525e+001 -5.500000e+000 -7.093629e+000
      endloop
   endfacet
   facet normal 3.762575e-001 0.000000e+000 -9.265151e-001
      outer loop
         vertex 3.393525e+001 -5.500000e+000 -7.093629e+000
         vertex 3.393525e+001 5.500000e+000 -7.093629e+000
         vertex 3.506961e+001 5.500000e+000 -6.596054e+000
      endloop
   endfacet
   facet normal 4.268270e-001 0.000000e+000 -9.043333e-001
      outer loop
         vertex 3.393525e+001 -5.500000e+000 -7.093629e+000
         vertex 3.506961e+001 5.500000e+000 -6.596054e+000
         vertex 3.506961e+001 -5.500000e+000 -6.596054e+000
      endloop
   endfacet
   facet normal 5.236253e-001 0.000000e+000 -8.519487e-001
      outer loop
         vertex 3.506961e+001 -5.500000e+000 -6.596054e+000
         vertex 3.506961e+001 5.500000e+000 -6.596054e+000
         vertex 3.610660e+001 5.500000e+000 -5.918553e+000
      endloop
   endfacet
   facet normal 5.698540e-001 0.000000e+000 -8.217459e-001
      outer loop
         vertex 3.506961e+001 -5.500000e+000 -6.596054e+000
         vertex 3.610660e+001 5.500000e+000 -5.918553e+000
         vertex 3.610660e+001 -5.500000e+000 -5.918553e+000
      endloop
   endfacet
   facet normal 6.567098e-001 0.000000e+000 -7.541434e-001
      outer loop
         vertex 3.610660e+001 -5.500000e+000 -5.918553e+000
         vertex 3.610660e+001 5.500000e+000 -5.918553e+000
         vertex 3.701793e+001 5.500000e+000 -5.079611e+000
      endloop
   endfacet
   facet normal 6.973369e-001 0.000000e+000 -7.167435e-001
      outer loop
         vertex 3.610660e+001 -5.500000e+000 -5.918553e+000
         vertex 3.701793e+001 5.500000e+000 -5.079611e+000
         vertex 3.701793e+001 -5.500000e+000 -5.079611e+000
      endloop
   endfacet
   facet normal 7.718811e-001 0.000000e+000 -6.357669e-001
      outer loop
         vertex 3.701793e+001 -5.500000e+000 -5.079611e+000
         vertex 3.701793e+001 5.500000e+000 -5.079611e+000
         vertex 3.777875e+001 5.500000e+000 -4.102111e+000
      endloop
   endfacet
   facet normal 8.057982e-001 0.000000e+000 -5.921901e-001
      outer loop
         vertex 3.701793e+001 -5.500000e+000 -5.079611e+000
         vertex 3.777875e+001 5.500000e+000 -4.102111e+000
         vertex 3.777875e+001 -5.500000e+000 -4.102111e+000
      endloop
   endfacet
   facet normal 8.659974e-001 0.000000e+000 -5.000484e-001
      outer loop
         vertex 3.777875e+001 -5.500000e+000 -4.102111e+000
         vertex 3.777875e+001 5.500000e+000 -4.102111e+000
         vertex 3.836830e+001 5.500000e+000 -3.012715e+000
      endloop
   endfacet
   facet normal 8.922795e-001 0.000000e+000 -4.514835e-001
      outer loop
         vertex 3.777875e+001 -5.500000e+000 -4.102111e+000
         vertex 3.836830e+001 5.500000e+000 -3.012715e+000
         vertex 3.836830e+001 -5.500000e+000 -3.012715e+000
      endloop
   endfacet
   facet normal 9.364916e-001 0.000000e+000 -3.506899e-001
      outer loop
         vertex 3.836830e+001 -5.500000e+000 -3.012715e+000
         vertex 3.836830e+001 5.500000e+000 -3.012715e+000
         vertex 3.877050e+001 5.500000e+000 -1.841141e+000
      endloop
   endfacet
   facet normal 9.544217e-001 0.000000e+000 -2.984615e-001
      outer loop
         vertex 3.836830e+001 -5.500000e+000 -3.012715e+000
         vertex 3.877050e+001 5.500000e+000 -1.841141e+000
         vertex 3.877050e+001 -5.500000e+000 -1.841141e+000
      endloop
   endfacet
   facet normal 9.814408e-001 0.000000e+000 -1.917655e-001
      outer loop
         vertex 3.877050e+001 -5.500000e+000 -1.841141e+000
         vertex 3.877050e+001 5.500000e+000 -1.841141e+000
         vertex 3.897438e+001 5.500000e+000 -6.193452e-001
      endloop
   endfacet
   facet normal 9.905298e-001 0.000000e+000 -1.372982e-001
      outer loop
         vertex 3.877050e+001 -5.500000e+000 -1.841141e+000
         vertex 3.897438e+001 5.500000e+000 -6.193452e-001
         vertex 3.897438e+001 -5.500000e+000 -6.193452e-001
      endloop
   endfacet
   facet normal 9.996188e-001 0.000000e+000 -2.761025e-002
      outer loop
         vertex 3.897438e+001 -5.500000e+000 -6.193452e-001
         vertex 3.897438e+001 5.500000e+000 -6.193452e-001
         vertex 3.897438e+001 5.500000e+000 6.193452e-001
      endloop
   endfacet
   facet normal 9.996188e-001 0.000000e+000 2.761026e-002
      outer loop
         vertex 3.897438e+001 -5.500000e+000 -6.193452e-001
         vertex 3.897438e+001 5.500000e+000 6.193452e-001
         vertex 3.897438e+001 -5.500000e+000 6.193452e-001
      endloop
   endfacet
   facet normal 9.905298e-001 -0.000000e+000 1.372982e-001
      outer loop
         vertex 3.897438e+001 -5.500000e+000 6.193452e-001
         vertex 3.897438e+001 5.500000e+000 6.193452e-001
         vertex 3.877050e+001 5.500000e+000 1.841141e+000
      endloop
   endfacet
   facet normal 9.814408e-001 -0.000000e+000 1.917655e-001
      outer loop
         vertex 3.897438e+001 -5.500000e+000 6.193452e-001
         vertex 3.877050e+001 5.500000e+000 1.841141e+000
         vertex 3.877050e+001 -5.500000e+000 1.841141e+000
      endloop
   endfacet
   facet normal 9.544217e-001 -0.000000e+000 2.984614e-001
      outer loop
         vertex 3.877050e+001 -5.500000e+000 1.841141e+000
         vertex 3.877050e+001 5.500000e+000 1.841141e+000
         vertex 3.836830e+001 5.500000e+000 3.012716e+000
      endloop
   endfacet
   facet normal 9.364916e-001 -0.000000e+000 3.506899e-001
      outer loop
         vertex 3.877050e+001 -5.500000e+000 1.841141e+000
         vertex 3.836830e+001 5.500000e+000 3.012716e+000
         vertex 3.836830e+001 -5.500000e+000 3.012716e+000
      endloop
   endfacet
   facet normal 8.922795e-001 -0.000000e+000 4.514835e-001
      outer loop
         vertex 3.836830e+001 -5.500000e+000 3.012716e+000
         vertex 3.836830e+001 5.500000e+000 3.012716e+000
         vertex 3.777875e+001 5.500000e+000 4.102111e+000
      endloop
   endfacet
   facet normal 8.659974e-001 -0.000000e+000 5.000485e-001
      outer loop
         vertex 3.836830e+001 -5.500000e+000 3.012716e+000
         vertex 3.777875e+001 5.500000e+000 4.102111e+000
         vertex 3.777875e+001 -5.500000e+000 4.102111e+000
      endloop
   endfacet
   facet normal 8.057982e-001 -0.000000e+000 5.921902e-001
      outer loop
         vertex 3.777875e+001 -5.500000e+000 4.102111e+000
         vertex 3.777875e+001 5.500000e+000 4.102111e+000
         vertex 3.701793e+001 5.500000e+000 5.079612e+000
      endloop
   endfacet
   facet normal 7.718811e-001 -0.000000e+000 6.357669e-001
      outer loop
         vertex 3.777875e+001 -5.500000e+000 4.102111e+000
         vertex 3.701793e+001 5.500000e+000 5.079612e+000
         vertex 3.701793e+001 -5.500000e+000 5.079612e+000
      endloop
   endfacet
   facet normal 6.973369e-001 -0.000000e+000 7.167435e-001
      outer loop
         vertex 3.701793e+001 -5.500000e+000 5.079612e+000
         vertex 3.701793e+001 5.500000e+000 5.079612e+000
         vertex 3.610659e+001 5.500000e+000 5.918554e+000
      endloop
   endfacet
   facet normal 6.567098e-001 -0.000000e+000 7.541433e-001
      outer loop
         vertex 3.701793e+001 -5.500000e+000 5.079612e+000
         vertex 3.610659e+001 5.500000e+000 5.918554e+000
         vertex 3.610659e+001 -5.500000e+000 5.918554e+000
      endloop
   endfacet
   facet normal 5.698540e-001 -0.000000e+000 8.217459e-001
      outer loop
         vertex 3.610659e+001 -5.500000e+000 5.918554e+000
         vertex 3.610659e+001 5.500000e+000 5.918554e+000
         vertex 3.506960e+001 5.500000e+000 6.596053e+000
      endloop
   endfacet
   facet normal 5.236253e-001 -0.000000e+000 8.519487e-001
      outer loop
         vertex 3.610659e+001 -5.500000e+000 5.918554e+000
         vertex 3.506960e+001 5.500000e+000 6.596053e+000
         vertex 3.506960e+001 -5.500000e+000 6.596053e+000
      endloop
   endfacet
   facet normal 4.268270e-001 -0.000000e+000 9.043333e-001
      outer loop
         vertex 3.506960e+001 -5.500000e+000 6.596053e+000
         vertex 3.506960e+001 5.500000e+000 6.596053e+000
         vertex 3.393525e+001 5.500000e+000 7.093629e+000
      endloop
   endfacet
   facet normal 3.762576e-001 -0.000000e+000 9.265151e-001
      outer loop
         vertex 3.506960e+001 -5.500000e+000 6.596053e+000
         vertex 3.393525e+001 5.500000e+000 7.093629e+000
         vertex 3.393525e+001 -5.500000e+000 7.093629e+000
      endloop
   endfacet
   facet normal 2.721573e-001 -0.000000e+000 9.622528e-001
      outer loop
         vertex 3.393525e+001 -5.500000e+000 7.093629e+000
         vertex 3.393525e+001 5.500000e+000 7.093629e+000
         vertex 3.273446e+001 5.500000e+000 7.397710e+000
      endloop
   endfacet
   facet normal 2.186265e-001 -0.000000e+000 9.758086e-001
      outer loop
         vertex 3.393525e+001 -5.500000e+000 7.093629e+000
         vertex 3.273446e+001 5.500000e+000 7.397710e+000
         vertex 3.273446e+001 -5.500000e+000 7.397710e+000
      endloop
   endfacet
   facet normal 1.100638e-001 -0.000000e+000 9.939245e-001
      outer loop
         vertex 3.273446e+001 -5.500000e+000 7.397710e+000
         vertex 3.273446e+001 5.500000e+000 7.397710e+000
         vertex 3.150000e+001 5.500000e+000 7.500000e+000
      endloop
   endfacet
   facet normal 5.503193e-002 -0.000000e+000 9.984846e-001
      outer loop
         vertex 3.273446e+001 -5.500000e+000 7.397710e+000
         vertex 3.150000e+001 5.500000e+000 7.500000e+000
         vertex 3.150000e+001 -5.500000e+000 7.500000e+000
      endloop
   endfacet
   facet normal -2.761960e-009 -0.000000e+000 1.000000e+000
      outer loop
         vertex -2.757914e-008 -5.500000e+000 7.500000e+000
         vertex 3.150000e+001 -5.500000e+000 7.500000e+000
         vertex -2.757914e-008 5.500000e+000 7.500000e+000
      endloop
   endfacet
   facet normal -2.761960e-009 -0.000000e+000 1.000000e+000
      outer loop
         vertex -2.757914e-008 5.500000e+000 7.500000e+000
         vertex 3.150000e+001 -5.500000e+000 7.500000e+000
         vertex 3.150000e+001 5.500000e+000 7.500000e+000
      endloop
   endfacet
   facet normal 0.000000e+000 -1.000000e+000 0.000000e+000
      outer loop
         vertex 3.150000e+001 -5.500000e+000 7.500000e+000
         vertex 3.150000e+001 -5.500000e+000 -7.500000e+000
         vertex 3.273446e+001 -5.500000e+000 -7.397710e+000
      endloop
   endfacet
   facet normal 0.000000e+000 -1.000000e+000 0.000000e+000
      outer loop
         vertex 3.610660e+001 -5.500000e+000 -5.918553e+000
         vertex 3.701793e+001 -5.500000e+000 -5.079611e+000
         vertex 3.877050e+001 -5.500000e+000 -1.841141e+000
      endloop
   endfacet
   facet normal 0.000000e+000 -1.000000e+000 0.000000e+000
      outer loop
         vertex 3.877050e+001 -5.500000e+000 -1.841141e+000
         vertex 3.701793e+001 -5.500000e+000 -5.079611e+000
         vertex 3.777875e+001 -5.500000e+000 -4.102111e+000
      endloop
   endfacet
   facet normal 0.000000e+000 -1.000000e+000 0.000000e+000
      outer loop
         vertex 3.877050e+001 -5.500000e+000 -1.841141e+000
         vertex 3.777875e+001 -5.500000e+000 -4.102111e+000
         vertex 3.836830e+001 -5.500000e+000 -3.012715e+000
      endloop
   endfacet
   facet normal 0.000000e+000 -1.000000e+000 0.000000e+000
      outer loop
         vertex 3.610660e+001 -5.500000e+000 -5.918553e+000
         vertex 3.877050e+001 -5.500000e+000 -1.841141e+000
         vertex 3.506961e+001 -5.500000e+000 -6.596054e+000
      endloop
   endfacet
   facet normal 0.000000e+000 -1.000000e+000 0.000000e+000
      outer loop
         vertex 3.506961e+001 -5.500000e+000 -6.596054e+000
         vertex 3.877050e+001 -5.500000e+000 -1.841141e+000
         vertex 3.897438e+001 -5.500000e+000 -6.193452e-001
      endloop
   endfacet
   facet normal 0.000000e+000 -1.000000e+000 0.000000e+000
      outer loop
         vertex 3.506961e+001 -5.500000e+000 -6.596054e+000
         vertex 3.897438e+001 -5.500000e+000 -6.193452e-001
         vertex 3.897438e+001 -5.500000e+000 6.193452e-001
      endloop
   endfacet
   facet normal 0.000000e+000 -1.000000e+000 0.000000e+000
      outer loop
         vertex 3.506961e+001 -5.500000e+000 -6.596054e+000
         vertex 3.777875e+001 -5.500000e+000 4.102111e+000
         vertex 3.701793e+001 -5.500000e+000 5.079612e+000
      endloop
   endfacet
   facet normal 0.000000e+000 -1.000000e+000 0.000000e+000
      outer loop
         vertex -2.435246e+000 -5.500000e+000 7.093629e+000
         vertex -3.569606e+000 -5.500000e+000 6.596053e+000
         vertex -1.234459e+000 -5.500000e+000 -7.397710e+000
      endloop
   endfacet
   facet normal 0.000000e+000 -1.000000e+000 0.000000e+000
      outer loop
         vertex -1.234459e+000 -5.500000e+000 -7.397710e+000
         vertex -3.569606e+000 -5.500000e+000 6.596053e+000
         vertex -4.606595e+000 -5.500000e+000 5.918554e+000
      endloop
   endfacet
   facet normal 0.000000e+000 -1.000000e+000 0.000000e+000
      outer loop
         vertex -6.868300e+000 -5.500000e+000 3.012716e+000
         vertex -7.270502e+000 -5.500000e+000 1.841141e+000
         vertex -1.234459e+000 -5.500000e+000 -7.397710e+000
      endloop
   endfacet
   facet normal 0.000000e+000 -1.000000e+000 0.000000e+000
      outer loop
         vertex -1.234459e+000 -5.500000e+000 -7.397710e+000
         vertex -7.270502e+000 -5.500000e+000 1.841141e+000
         vertex -7.474384e+000 -5.500000e+000 6.193451e-001
      endloop
   endfacet
   facet normal 0.000000e+000 -1.000000e+000 0.000000e+000
      outer loop
         vertex 3.897438e+001 -5.500000e+000 6.193452e-001
         vertex 3.877050e+001 -5.500000e+000 1.841141e+000
         vertex 3.506961e+001 -5.500000e+000 -6.596054e+000
      endloop
   endfacet
   facet normal 0.000000e+000 -1.000000e+000 0.000000e+000
      outer loop
         vertex 3.506961e+001 -5.500000e+000 -6.596054e+000
         vertex 3.877050e+001 -5.500000e+000 1.841141e+000
         vertex 3.836830e+001 -5.500000e+000 3.012716e+000
      endloop
   endfacet
   facet normal 0.000000e+000 -1.000000e+000 0.000000e+000
      outer loop
         vertex 3.506961e+001 -5.500000e+000 -6.596054e+000
         vertex 3.836830e+001 -5.500000e+000 3.012716e+000
         vertex 3.777875e+001 -5.500000e+000 4.102111e+000
      endloop
   endfacet
   facet normal 0.000000e+000 -1.000000e+000 0.000000e+000
      outer loop
         vertex 3.701793e+001 -5.500000e+000 5.079612e+000
         vertex 3.610659e+001 -5.500000e+000 5.918554e+000
         vertex 3.506961e+001 -5.500000e+000 -6.596054e+000
      endloop
   endfacet
   facet normal 0.000000e+000 -1.000000e+000 0.000000e+000
      outer loop
         vertex 3.506961e+001 -5.500000e+000 -6.596054e+000
         vertex 3.610659e+001 -5.500000e+000 5.918554e+000
         vertex 3.506960e+001 -5.500000e+000 6.596053e+000
      endloop
   endfacet
   facet normal 0.000000e+000 -1.000000e+000 0.000000e+000
      outer loop
         vertex 3.506961e+001 -5.500000e+000 -6.596054e+000
         vertex 3.506960e+001 -5.500000e+000 6.596053e+000
         vertex 3.393525e+001 -5.500000e+000 7.093629e+000
      endloop
   endfacet
   facet normal 0.000000e+000 -1.000000e+000 0.000000e+000
      outer loop
         vertex 3.273446e+001 -5.500000e+000 -7.397710e+000
         vertex 3.393525e+001 -5.500000e+000 -7.093629e+000
         vertex 3.150000e+001 -5.500000e+000 7.500000e+000
      endloop
   endfacet
   facet normal 0.000000e+000 -1.000000e+000 0.000000e+000
      outer loop
         vertex 3.150000e+001 -5.500000e+000 7.500000e+000
         vertex 3.393525e+001 -5.500000e+000 -7.093629e+000
         vertex 3.506961e+001 -5.500000e+000 -6.596054e+000
      endloop
   endfacet
   facet normal 0.000000e+000 -1.000000e+000 0.000000e+000
      outer loop
         vertex 3.150000e+001 -5.500000e+000 7.500000e+000
         vertex 3.506961e+001 -5.500000e+000 -6.596054e+000
         vertex 3.273446e+001 -5.500000e+000 7.397710e+000
      endloop
   endfacet
   facet normal 0.000000e+000 -1.000000e+000 0.000000e+000
      outer loop
         vertex 3.273446e+001 -5.500000e+000 7.397710e+000
         vertex 3.506961e+001 -5.500000e+000 -6.596054e+000
         vertex 3.393525e+001 -5.500000e+000 7.093629e+000
      endloop
   endfacet
   facet normal 0.000000e+000 -1.000000e+000 0.000000e+000
      outer loop
         vertex 3.150000e+001 -5.500000e+000 -7.500000e+000
         vertex 3.150000e+001 -5.500000e+000 7.500000e+000
         vertex 2.757914e-008 -5.500000e+000 -7.500000e+000
      endloop
   endfacet
   facet normal 0.000000e+000 -1.000000e+000 0.000000e+000
      outer loop
         vertex 2.757914e-008 -5.500000e+000 -7.500000e+000
         vertex 3.150000e+001 -5.500000e+000 7.500000e+000
         vertex -2.757914e-008 -5.500000e+000 7.500000e+000
      endloop
   endfacet
   facet normal 0.000000e+000 -1.000000e+000 0.000000e+000
      outer loop
         vertex 2.757914e-008 -5.500000e+000 -7.500000e+000
         vertex -2.757914e-008 -5.500000e+000 7.500000e+000
         vertex -1.234459e+000 -5.500000e+000 -7.397710e+000
      endloop
   endfacet
   facet normal 0.000000e+000 -1.000000e+000 0.000000e+000
      outer loop
         vertex -1.234459e+000 -5.500000e+000 -7.397710e+000
         vertex -2.757914e-008 -5.500000e+000 7.500000e+000
         vertex -1.234459e+000 -5.500000e+000 7.397710e+000
      endloop
   endfacet
   facet normal 0.000000e+000 -1.000000e+000 0.000000e+000
      outer loop
         vertex -1.234459e+000 -5.500000e+000 -7.397710e+000
         vertex -1.234459e+000 -5.500000e+000 7.397710e+000
         vertex -2.435246e+000 -5.500000e+000 7.093629e+000
      endloop
   endfacet
   facet normal 0.000000e+000 -1.000000e+000 0.000000e+000
      outer loop
         vertex -4.606595e+000 -5.500000e+000 5.918554e+000
         vertex -5.517930e+000 -5.500000e+000 5.079612e+000
         vertex -1.234459e+000 -5.500000e+000 -7.397710e+000
      endloop
   endfacet
   facet normal 0.000000e+000 -1.000000e+000 0.000000e+000
      outer loop
         vertex -1.234459e+000 -5.500000e+000 -7.397710e+000
         vertex -5.517930e+000 -5.500000e+000 5.079612e+000
         vertex -6.278749e+000 -5.500000e+000 4.102111e+000
      endloop
   endfacet
   facet normal 0.000000e+000 -1.000000e+000 0.000000e+000
      outer loop
         vertex -1.234459e+000 -5.500000e+000 -7.397710e+000
         vertex -6.278749e+000 -5.500000e+000 4.102111e+000
         vertex -6.868300e+000 -5.500000e+000 3.012716e+000
      endloop
   endfacet
   facet normal 0.000000e+000 -1.000000e+000 0.000000e+000
      outer loop
         vertex -7.474384e+000 -5.500000e+000 6.193451e-001
         vertex -7.474384e+000 -5.500000e+000 -6.193451e-001
         vertex -1.234459e+000 -5.500000e+000 -7.397710e+000
      endloop
   endfacet
   facet normal 0.000000e+000 -1.000000e+000 0.000000e+000
      outer loop
         vertex -1.234459e+000 -5.500000e+000 -7.397710e+000
         vertex -7.474384e+000 -5.500000e+000 -6.193451e-001
         vertex -7.270502e+000 -5.500000e+000 -1.841141e+000
      endloop
   endfacet
   facet normal 0.000000e+000 -1.000000e+000 0.000000e+000
      outer loop
         vertex -1.234459e+000 -5.500000e+000 -7.397710e+000
         vertex -7.270502e+000 -5.500000e+000 -1.841141e+000
         vertex -6.868299e+000 -5.500000e+000 -3.012716e+000
      endloop
   endfacet
   facet normal 0.000000e+000 -1.000000e+000 0.000000e+000
      outer loop
         vertex -5.517930e+000 -5.500000e+000 -5.079612e+000
         vertex -4.606595e+000 -5.500000e+000 -5.918554e+000
         vertex -3.569606e+000 -5.500000e+000 -6.596054e+000
      endloop
   endfacet
   facet normal 0.000000e+000 -1.000000e+000 0.000000e+000
      outer loop
         vertex -6.868299e+000 -5.500000e+000 -3.012716e+000
         vertex -6.278749e+000 -5.500000e+000 -4.102111e+000
         vertex -1.234459e+000 -5.500000e+000 -7.397710e+000
      endloop
   endfacet
   facet normal 0.000000e+000 -1.000000e+000 0.000000e+000
      outer loop
         vertex -1.234459e+000 -5.500000e+000 -7.397710e+000
         vertex -6.278749e+000 -5.500000e+000 -4.102111e+000
         vertex -5.517930e+000 -5.500000e+000 -5.079612e+000
      endloop
   endfacet
   facet normal 0.000000e+000 -1.000000e+000 0.000000e+000
      outer loop
         vertex -1.234459e+000 -5.500000e+000 -7.397710e+000
         vertex -5.517930e+000 -5.500000e+000 -5.079612e+000
         vertex -2.435246e+000 -5.500000e+000 -7.093629e+000
      endloop
   endfacet
   facet normal 0.000000e+000 -1.000000e+000 0.000000e+000
      outer loop
         vertex -2.435246e+000 -5.500000e+000 -7.093629e+000
         vertex -5.517930e+000 -5.500000e+000 -5.079612e+000
         vertex -3.569606e+000 -5.500000e+000 -6.596054e+000
      endloop
   endfacet
   facet normal -0.000000e+000 1.000000e+000 0.000000e+000
      outer loop
         vertex -7.270502e+000 5.500000e+000 1.841141e+000
         vertex -1.234459e+000 5.500000e+000 -7.397710e+000
         vertex -2.435246e+000 5.500000e+000 -7.093629e+000
      endloop
   endfacet
   facet normal -0.000000e+000 1.000000e+000 0.000000e+000
      outer loop
         vertex 3.701793e+001 5.500000e+000 5.079612e+000
         vertex 3.777875e+001 5.500000e+000 4.102111e+000
         vertex 3.150000e+001 5.500000e+000 -7.500000e+000
      endloop
   endfacet
   facet normal -0.000000e+000 1.000000e+000 0.000000e+000
      outer loop
         vertex 3.150000e+001 5.500000e+000 -7.500000e+000
         vertex 3.777875e+001 5.500000e+000 4.102111e+000
         vertex 3.836830e+001 5.500000e+000 3.012716e+000
      endloop
   endfacet
   facet normal -0.000000e+000 1.000000e+000 0.000000e+000
      outer loop
         vertex 3.150000e+001 5.500000e+000 -7.500000e+000
         vertex 3.836830e+001 5.500000e+000 3.012716e+000
         vertex 3.273446e+001 5.500000e+000 -7.397710e+000
      endloop
   endfacet
   facet normal -0.000000e+000 1.000000e+000 0.000000e+000
      outer loop
         vertex 3.273446e+001 5.500000e+000 -7.397710e+000
         vertex 3.836830e+001 5.500000e+000 3.012716e+000
         vertex 3.393525e+001 5.500000e+000 -7.093629e+000
      endloop
   endfacet
   facet normal -0.000000e+000 1.000000e+000 0.000000e+000
      outer loop
         vertex -7.270502e+000 5.500000e+000 1.841141e+000
         vertex -6.868300e+000 5.500000e+000 3.012716e+000
         vertex -1.234459e+000 5.500000e+000 -7.397710e+000
      endloop
   endfacet
   facet normal -0.000000e+000 1.000000e+000 0.000000e+000
      outer loop
         vertex -1.234459e+000 5.500000e+000 -7.397710e+000
         vertex -6.868300e+000 5.500000e+000 3.012716e+000
         vertex -6.278749e+000 5.500000e+000 4.102111e+000
      endloop
   endfacet
   facet normal -0.000000e+000 1.000000e+000 0.000000e+000
      outer loop
         vertex -1.234459e+000 5.500000e+000 -7.397710e+000
         vertex -6.278749e+000 5.500000e+000 4.102111e+000
         vertex -5.517930e+000 5.500000e+000 5.079612e+000
      endloop
   endfacet
   facet normal -0.000000e+000 1.000000e+000 0.000000e+000
      outer loop
         vertex -2.435246e+000 5.500000e+000 -7.093629e+000
         vertex -3.569606e+000 5.500000e+000 -6.596054e+000
         vertex -7.270502e+000 5.500000e+000 1.841141e+000
      endloop
   endfacet
   facet normal -0.000000e+000 1.000000e+000 0.000000e+000
      outer loop
         vertex -7.270502e+000 5.500000e+000 1.841141e+000
         vertex -3.569606e+000 5.500000e+000 -6.596054e+000
         vertex -4.606595e+000 5.500000e+000 -5.918554e+000
      endloop
   endfacet
   facet normal -0.000000e+000 1.000000e+000 0.000000e+000
      outer loop
         vertex -7.270502e+000 5.500000e+000 1.841141e+000
         vertex -4.606595e+000 5.500000e+000 -5.918554e+000
         vertex -5.517930e+000 5.500000e+000 -5.079612e+000
      endloop
   endfacet
   facet normal -0.000000e+000 1.000000e+000 0.000000e+000
      outer loop
         vertex -5.517930e+000 5.500000e+000 5.079612e+000
         vertex -4.606595e+000 5.500000e+000 5.918554e+000
         vertex -1.234459e+000 5.500000e+000 -7.397710e+000
      endloop
   endfacet
   facet normal -0.000000e+000 1.000000e+000 0.000000e+000
      outer loop
         vertex -1.234459e+000 5.500000e+000 -7.397710e+000
         vertex -4.606595e+000 5.500000e+000 5.918554e+000
         vertex -3.569606e+000 5.500000e+000 6.596053e+000
      endloop
   endfacet
   facet normal -0.000000e+000 1.000000e+000 0.000000e+000
      outer loop
         vertex -1.234459e+000 5.500000e+000 -7.397710e+000
         vertex -3.569606e+000 5.500000e+000 6.596053e+000
         vertex -2.435246e+000 5.500000e+000 7.093629e+000
      endloop
   endfacet
   facet normal -0.000000e+000 1.000000e+000 0.000000e+000
      outer loop
         vertex -2.757914e-008 5.500000e+000 7.500000e+000
         vertex 3.150000e+001 5.500000e+000 7.500000e+000
         vertex 3.150000e+001 5.500000e+000 -7.500000e+000
      endloop
   endfacet
   facet normal -0.000000e+000 1.000000e+000 0.000000e+000
      outer loop
         vertex 3.150000e+001 5.500000e+000 -7.500000e+000
         vertex 3.150000e+001 5.500000e+000 7.500000e+000
         vertex 3.273446e+001 5.500000e+000 7.397710e+000
      endloop
   endfacet
   facet normal -0.000000e+000 1.000000e+000 0.000000e+000
      outer loop
         vertex 3.150000e+001 5.500000e+000 -7.500000e+000
         vertex 3.273446e+001 5.500000e+000 7.397710e+000
         vertex 3.393525e+001 5.500000e+000 7.093629e+000
      endloop
   endfacet
   facet normal -0.000000e+000 1.000000e+000 0.000000e+000
      outer loop
         vertex 3.701793e+001 5.500000e+000 -5.079611e+000
         vertex 3.877050e+001 5.500000e+000 -1.841141e+000
         vertex 3.777875e+001 5.500000e+000 -4.102111e+000
      endloop
   endfacet
   facet normal -0.000000e+000 1.000000e+000 0.000000e+000
      outer loop
         vertex 3.777875e+001 5.500000e+000 -4.102111e+000
         vertex 3.877050e+001 5.500000e+000 -1.841141e+000
         vertex 3.836830e+001 5.500000e+000 -3.012715e+000
      endloop
   endfacet
   facet normal -0.000000e+000 1.000000e+000 0.000000e+000
      outer loop
         vertex 3.897438e+001 5.500000e+000 6.193452e-001
         vertex 3.897438e+001 5.500000e+000 -6.193452e-001
         vertex 3.506961e+001 5.500000e+000 -6.596054e+000
      endloop
   endfacet
   facet normal -0.000000e+000 1.000000e+000 0.000000e+000
      outer loop
         vertex 3.506961e+001 5.500000e+000 -6.596054e+000
         vertex 3.897438e+001 5.500000e+000 -6.193452e-001
         vertex 3.877050e+001 5.500000e+000 -1.841141e+000
      endloop
   endfacet
   facet normal -0.000000e+000 1.000000e+000 0.000000e+000
      outer loop
         vertex 3.506961e+001 5.500000e+000 -6.596054e+000
         vertex 3.877050e+001 5.500000e+000 -1.841141e+000
         vertex 3.610660e+001 5.500000e+000 -5.918553e+000
      endloop
   endfacet
   facet normal -0.000000e+000 1.000000e+000 0.000000e+000
      outer loop
         vertex 3.610660e+001 5.500000e+000 -5.918553e+000
         vertex 3.877050e+001 5.500000e+000 -1.841141e+000
         vertex 3.701793e+001 5.500000e+000 -5.079611e+000
      endloop
   endfacet
   facet normal -0.000000e+000 1.000000e+000 0.000000e+000
      outer loop
         vertex 3.150000e+001 5.500000e+000 -7.500000e+000
         vertex 2.757914e-008 5.500000e+000 -7.500000e+000
         vertex -2.757914e-008 5.500000e+000 7.500000e+000
      endloop
   endfacet
   facet normal -0.000000e+000 1.000000e+000 0.000000e+000
      outer loop
         vertex -2.757914e-008 5.500000e+000 7.500000e+000
         vertex 2.757914e-008 5.500000e+000 -7.500000e+000
         vertex -1.234459e+000 5.500000e+000 -7.397710e+000
      endloop
   endfacet
   facet normal -0.000000e+000 1.000000e+000 0.000000e+000
      outer loop
         vertex -2.757914e-008 5.500000e+000 7.500000e+000
         vertex -1.234459e+000 5.500000e+000 -7.397710e+000
         vertex -1.234459e+000 5.500000e+000 7.397710e+000
      endloop
   endfacet
   facet normal -0.000000e+000 1.000000e+000 0.000000e+000
      outer loop
         vertex -1.234459e+000 5.500000e+000 7.397710e+000
         vertex -1.234459e+000 5.500000e+000 -7.397710e+000
         vertex -2.435246e+000 5.500000e+000 7.093629e+000
      endloop
   endfacet
   facet normal -0.000000e+000 1.000000e+000 0.000000e+000
      outer loop
         vertex 3.393525e+001 5.500000e+000 7.093629e+000
         vertex 3.506960e+001 5.500000e+000 6.596053e+000
         vertex 3.150000e+001 5.500000e+000 -7.500000e+000
      endloop
   endfacet
   facet normal -0.000000e+000 1.000000e+000 0.000000e+000
      outer loop
         vertex 3.150000e+001 5.500000e+000 -7.500000e+000
         vertex 3.506960e+001 5.500000e+000 6.596053e+000
         vertex 3.610659e+001 5.500000e+000 5.918554e+000
      endloop
   endfacet
   facet normal -0.000000e+000 1.000000e+000 0.000000e+000
      outer loop
         vertex 3.150000e+001 5.500000e+000 -7.500000e+000
         vertex 3.610659e+001 5.500000e+000 5.918554e+000
         vertex 3.701793e+001 5.500000e+000 5.079612e+000
      endloop
   endfacet
   facet normal -0.000000e+000 1.000000e+000 0.000000e+000
      outer loop
         vertex 3.393525e+001 5.500000e+000 -7.093629e+000
         vertex 3.836830e+001 5.500000e+000 3.012716e+000
         vertex 3.506961e+001 5.500000e+000 -6.596054e+000
      endloop
   endfacet
   facet normal -0.000000e+000 1.000000e+000 0.000000e+000
      outer loop
         vertex 3.506961e+001 5.500000e+000 -6.596054e+000
         vertex 3.836830e+001 5.500000e+000 3.012716e+000
         vertex 3.877050e+001 5.500000e+000 1.841141e+000
      endloop
   endfacet
   facet normal -0.000000e+000 1.000000e+000 0.000000e+000
      outer loop
         vertex 3.506961e+001 5.500000e+000 -6.596054e+000
         vertex 3.877050e+001 5.500000e+000 1.841141e+000
         vertex 3.897438e+001 5.500000e+000 6.193452e-001
      endloop
   endfacet
   facet normal -0.000000e+000 1.000000e+000 0.000000e+000
      outer loop
         vertex -5.517930e+000 5.500000e+000 -5.079612e+000
         vertex -6.278749e+000 5.500000e+000 -4.102111e+000
         vertex -7.270502e+000 5.500000e+000 1.841141e+000
      endloop
   endfacet
   facet normal -0.000000e+000 1.000000e+000 0.000000e+000
      outer loop
         vertex -7.270502e+000 5.500000e+000 1.841141e+000
         vertex -6.278749e+000 5.500000e+000 -4.102111e+000
         vertex -6.868299e+000 5.500000e+000 -3.012716e+000
      endloop
   endfacet
   facet normal -0.000000e+000 1.000000e+000 0.000000e+000
      outer loop
         vertex -7.270502e+000 5.500000e+000 1.841141e+000
         vertex -6.868299e+000 5.500000e+000 -3.012716e+000
         vertex -7.474384e+000 5.500000e+000 6.193451e-001
      endloop
   endfacet
   facet normal -0.000000e+000 1.000000e+000 0.000000e+000
      outer loop
         vertex -7.474384e+000 5.500000e+000 6.193451e-001
         vertex -6.868299e+000 5.500000e+000 -3.012716e+000
         vertex -7.270502e+000 5.500000e+000 -1.841141e+000
      endloop
   endfacet
   facet normal -0.000000e+000 1.000000e+000 0.000000e+000
      outer loop
         vertex -7.474384e+000 5.500000e+000 6.193451e-001
         vertex -7.270502e+000 5.500000e+000 -1.841141e+000
         vertex -7.474384e+000 5.500000e+000 -6.193451e-001
      endloop
   endfacet
endsolid