solid robotiq_85_base_link
   facet normal 1.224511e-016 -1.000000e+000 0.000000e+000
      outer loop
         vertex -4.250000e+001 -1.225000e+001 5.200000e+001
         vertex -3.750000e+001 -1.225000e+001 4.000000e+001
         vertex -3.544274e+001 -1.225000e+001 4.000000e+001
      endloop
   endfacet
   facet normal 1.224511e-016 -1.000000e+000 0.000000e+000
      outer loop
         vertex -4.250000e+001 -1.225000e+001 6.000000e+001
         vertex -4.250000e+001 -1.225000e+001 5.200000e+001
         vertex -2.050000e+001 -1.225000e+001 9.000000e+001
      endloop
   endfacet
   facet normal 1.224511e-016 -1.000000e+000 0.000000e+000
      outer loop
         vertex -2.050000e+001 -1.225000e+001 9.000000e+001
         vertex -4.250000e+001 -1.225000e+001 5.200000e+001
         vertex -3.544274e+001 -1.225000e+001 4.000000e+001
      endloop
   endfacet
   facet normal 1.224511e-016 -1.000000e+000 0.000000e+000
      outer loop
         vertex -2.050000e+001 -1.225000e+001 9.000000e+001
         vertex -3.544274e+001 -1.225000e+001 4.000000e+001
         vertex 2.050000e+001 -1.225000e+001 9.000000e+001
      endloop
   endfacet
   facet normal 1.224511e-016 -1.000000e+000 0.000000e+000
      outer loop
         vertex 2.050000e+001 -1.225000e+001 9.000000e+001
         vertex -3.544274e+001 -1.225000e+001 4.000000e+001
         vertex 3.544274e+001 -1.225000e+001 4.000000e+001
      endloop
   endfacet
   facet normal 1.224511e-016 -1.000000e+000 0.000000e+000
      outer loop
         vertex 3.544274e+001 -1.225000e+001 4.000000e+001
         vertex 3.750000e+001 -1.225000e+001 4.000000e+001
         vertex 2.050000e+001 -1.225000e+001 9.000000e+001
      endloop
   endfacet
   facet normal 1.224511e-016 -1.000000e+000 0.000000e+000
      outer loop
         vertex 2.050000e+001 -1.225000e+001 9.000000e+001
         vertex 3.750000e+001 -1.225000e+001 4.000000e+001
         vertex 4.250000e+001 -1.225000e+001 5.200000e+001
      endloop
   endfacet
   facet normal 1.224511e-016 -1.000000e+000 0.000000e+000
      outer loop
         vertex 2.050000e+001 -1.225000e+001 9.000000e+001
         vertex 4.250000e+001 -1.225000e+001 5.200000e+001
         vertex 4.250000e+001 -1.225000e+001 6.000000e+001
      endloop
   endfacet
   facet normal -1.224511e-016 1.000000e+000 0.000000e+000
      outer loop
         vertex 4.250000e+001 1.225000e+001 5.200000e+001
         vertex 3.750000e+001 1.225000e+001 4.000000e+001
         vertex 3.544274e+001 1.225000e+001 4.000000e+001
      endloop
   endfacet
   facet normal -1.224511e-016 1.000000e+000 0.000000e+000
      outer loop
         vertex 4.250000e+001 1.225000e+001 6.000000e+001
         vertex 4.250000e+001 1.225000e+001 5.200000e+001
         vertex 2.050000e+001 1.225000e+001 9.000000e+001
      endloop
   endfacet
   facet normal -1.224511e-016 1.000000e+000 0.000000e+000
      outer loop
         vertex 2.050000e+001 1.225000e+001 9.000000e+001
         vertex 4.250000e+001 1.225000e+001 5.200000e+001
         vertex 3.544274e+001 1.225000e+001 4.000000e+001
      endloop
   endfacet
   facet normal -1.224511e-016 1.000000e+000 0.000000e+000
      outer loop
         vertex 2.050000e+001 1.225000e+001 9.000000e+001
         vertex 3.544274e+001 1.225000e+001 4.000000e+001
         vertex -2.050000e+001 1.225000e+001 9.000000e+001
      endloop
   endfacet
   facet normal -1.224511e-016 1.000000e+000 0.000000e+000
      outer loop
         vertex -2.050000e+001 1.225000e+001 9.000000e+001
         vertex 3.544274e+001 1.225000e+001 4.000000e+001
         vertex -3.544274e+001 1.225000e+001 4.000000e+001
      endloop
   endfacet
   facet normal -1.224511e-016 1.000000e+000 0.000000e+000
      outer loop
         vertex -3.544274e+001 1.225000e+001 4.000000e+001
         vertex -3.750000e+001 1.225000e+001 4.000000e+001
         vertex -2.050000e+001 1.225000e+001 9.000000e+001
      endloop
   endfacet
   facet normal -1.224511e-016 1.000000e+000 0.000000e+000
      outer loop
         vertex -2.050000e+001 1.225000e+001 9.000000e+001
         vertex -3.750000e+001 1.225000e+001 4.000000e+001
         vertex -4.250000e+001 1.225000e+001 5.200000e+001
      endloop
   endfacet
   facet normal -1.224511e-016 1.000000e+000 0.000000e+000
      outer loop
         vertex -2.050000e+001 1.225000e+001 9.000000e+001
         vertex -4.250000e+001 1.225000e+001 5.200000e+001
         vertex -4.250000e+001 1.225000e+001 6.000000e+001
      endloop
   endfacet
   facet normal -1.000000e+000 0.000000e+000 0.000000e+000
      outer loop
         vertex -4.250000e+001 -1.225000e+001 6.000000e+001
         vertex -4.250000e+001 1.225000e+001 6.000000e+001
         vertex -4.250000e+001 -1.225000e+001 5.200000e+001
      endloop
   endfacet
   facet normal -1.000000e+000 0.000000e+000 0.000000e+000
      outer loop
         vertex -4.250000e+001 -1.225000e+001 5.200000e+001
         vertex -4.250000e+001 1.225000e+001 6.000000e+001
         vertex -4.250000e+001 1.225000e+001 5.200000e+001
      endloop
   endfacet
   facet normal 0.000000e+000 0.000000e+000 -1.000000e+000
      outer loop
         vertex -3.750000e+001 1.225000e+001 4.000000e+001
         vertex -3.544274e+001 1.225000e+001 4.000000e+001
         vertex -3.566462e+001 1.158814e+001 4.000000e+001
      endloop
   endfacet
   facet normal 0.000000e+000 0.000000e+000 -1.000000e+000
      outer loop
         vertex -3.566462e+001 1.158814e+001 4.000000e+001
         vertex -3.683577e+001 7.026800e+000 4.000000e+001
         vertex -3.750000e+001 1.225000e+001 4.000000e+001
      endloop
   endfacet
   facet normal 0.000000e+000 0.000000e+000 -1.000000e+000
      outer loop
         vertex -3.750000e+001 1.225000e+001 4.000000e+001
         vertex -3.683577e+001 7.026800e+000 4.000000e+001
         vertex -3.742600e+001 2.354645e+000 4.000000e+001
      endloop
   endfacet
   facet normal 0.000000e+000 0.000000e+000 -1.000000e+000
      outer loop
         vertex -3.750000e+001 1.225000e+001 4.000000e+001
         vertex -3.742600e+001 2.354645e+000 4.000000e+001
         vertex -3.750000e+001 -6.888638e-015 4.000000e+001
      endloop
   endfacet
   facet normal 0.000000e+000 0.000000e+000 -1.000000e+000
      outer loop
         vertex -3.750000e+001 -1.225000e+001 4.000000e+001
         vertex -3.750000e+001 -6.888638e-015 4.000000e+001
         vertex -3.742600e+001 -2.354645e+000 4.000000e+001
      endloop
   endfacet
   facet normal 0.000000e+000 0.000000e+000 -1.000000e+000
      outer loop
         vertex -3.742600e+001 -2.354645e+000 4.000000e+001
         vertex -3.683577e+001 -7.026800e+000 4.000000e+001
         vertex -3.750000e+001 -1.225000e+001 4.000000e+001
      endloop
   endfacet
   facet normal 0.000000e+000 0.000000e+000 -1.000000e+000
      outer loop
         vertex -3.750000e+001 -1.225000e+001 4.000000e+001
         vertex -3.683577e+001 -7.026800e+000 4.000000e+001
         vertex -3.566462e+001 -1.158814e+001 4.000000e+001
      endloop
   endfacet
   facet normal 0.000000e+000 0.000000e+000 -1.000000e+000
      outer loop
         vertex -3.750000e+001 -1.225000e+001 4.000000e+001
         vertex -3.566462e+001 -1.158814e+001 4.000000e+001
         vertex -3.544274e+001 -1.225000e+001 4.000000e+001
      endloop
   endfacet
   facet normal 0.000000e+000 0.000000e+000 1.000000e+000
      outer loop
         vertex -2.050000e+001 -1.225000e+001 9.000000e+001
         vertex 2.050000e+001 -1.225000e+001 9.000000e+001
         vertex -2.050000e+001 1.225000e+001 9.000000e+001
      endloop
   endfacet
   facet normal 0.000000e+000 0.000000e+000 1.000000e+000
      outer loop
         vertex -2.050000e+001 1.225000e+001 9.000000e+001
         vertex 2.050000e+001 -1.225000e+001 9.000000e+001
         vertex 2.050000e+001 1.225000e+001 9.000000e+001
      endloop
   endfacet
   facet normal 0.000000e+000 0.000000e+000 -1.000000e+000
      outer loop
         vertex 3.750000e+001 1.225000e+001 4.000000e+001
         vertex 3.750000e+001 2.296213e-015 4.000000e+001
         vertex 3.742600e+001 2.354645e+000 4.000000e+001
      endloop
   endfacet
   facet normal 0.000000e+000 0.000000e+000 -1.000000e+000
      outer loop
         vertex 3.742600e+001 2.354645e+000 4.000000e+001
         vertex 3.683577e+001 7.026800e+000 4.000000e+001
         vertex 3.750000e+001 1.225000e+001 4.000000e+001
      endloop
   endfacet
   facet normal 0.000000e+000 0.000000e+000 -1.000000e+000
      outer loop
         vertex 3.750000e+001 1.225000e+001 4.000000e+001
         vertex 3.683577e+001 7.026800e+000 4.000000e+001
         vertex 3.566462e+001 1.158814e+001 4.000000e+001
      endloop
   endfacet
   facet normal 0.000000e+000 0.000000e+000 -1.000000e+000
      outer loop
         vertex 3.750000e+001 1.225000e+001 4.000000e+001
         vertex 3.566462e+001 1.158814e+001 4.000000e+001
         vertex 3.544274e+001 1.225000e+001 4.000000e+001
      endloop
   endfacet
   facet normal 0.000000e+000 0.000000e+000 1.000000e+000
      outer loop
         vertex 3.544274e+001 -1.225000e+001 4.000000e+001
         vertex -3.544274e+001 -1.225000e+001 4.000000e+001
         vertex 3.393102e+001 -1.596672e+001 4.000000e+001
      endloop
   endfacet
   facet normal 0.000000e+000 0.000000e+000 1.000000e+000
      outer loop
         vertex 3.393102e+001 -1.596672e+001 4.000000e+001
         vertex -3.544274e+001 -1.225000e+001 4.000000e+001
         vertex -3.393102e+001 -1.596672e+001 4.000000e+001
      endloop
   endfacet
   facet normal 0.000000e+000 0.000000e+000 1.000000e+000
      outer loop
         vertex -3.393102e+001 -1.596672e+001 4.000000e+001
         vertex -3.166230e+001 -2.009350e+001 4.000000e+001
         vertex 3.393102e+001 -1.596672e+001 4.000000e+001
      endloop
   endfacet
   facet normal 0.000000e+000 0.000000e+000 1.000000e+000
      outer loop
         vertex 3.393102e+001 -1.596672e+001 4.000000e+001
         vertex -3.166230e+001 -2.009350e+001 4.000000e+001
         vertex -2.889425e+001 -2.390340e+001 4.000000e+001
      endloop
   endfacet
   facet normal 0.000000e+000 0.000000e+000 1.000000e+000
      outer loop
         vertex 3.393102e+001 -1.596672e+001 4.000000e+001
         vertex -2.889425e+001 -2.390340e+001 4.000000e+001
         vertex 3.166230e+001 -2.009350e+001 4.000000e+001
      endloop
   endfacet
   facet normal 0.000000e+000 0.000000e+000 1.000000e+000
      outer loop
         vertex -2.889425e+001 -2.390340e+001 4.000000e+001
         vertex -2.567052e+001 -2.733632e+001 4.000000e+001
         vertex 9.325871e+000 -3.632187e+001 4.000000e+001
      endloop
   endfacet
   facet normal 0.000000e+000 0.000000e+000 1.000000e+000
      outer loop
         vertex 9.325871e+000 -3.632187e+001 4.000000e+001
         vertex -2.567052e+001 -2.733632e+001 4.000000e+001
         vertex -2.204195e+001 -3.033814e+001 4.000000e+001
      endloop
   endfacet
   facet normal 0.000000e+000 0.000000e+000 1.000000e+000
      outer loop
         vertex 9.325871e+000 -3.632187e+001 4.000000e+001
         vertex -2.204195e+001 -3.033814e+001 4.000000e+001
         vertex 4.699996e+000 -3.720430e+001 4.000000e+001
      endloop
   endfacet
   facet normal 0.000000e+000 0.000000e+000 1.000000e+000
      outer loop
         vertex -9.325871e+000 -3.632187e+001 4.000000e+001
         vertex -4.699996e+000 -3.720430e+001 4.000000e+001
         vertex 4.592426e-015 -3.750000e+001 4.000000e+001
      endloop
   endfacet
   facet normal 0.000000e+000 0.000000e+000 1.000000e+000
      outer loop
         vertex 9.325871e+000 -3.632187e+001 4.000000e+001
         vertex 1.380467e+001 -3.486662e+001 4.000000e+001
         vertex -2.889425e+001 -2.390340e+001 4.000000e+001
      endloop
   endfacet
   facet normal 0.000000e+000 0.000000e+000 1.000000e+000
      outer loop
         vertex -2.889425e+001 -2.390340e+001 4.000000e+001
         vertex 1.380467e+001 -3.486662e+001 4.000000e+001
         vertex 1.806576e+001 -3.286150e+001 4.000000e+001
      endloop
   endfacet
   facet normal 0.000000e+000 0.000000e+000 1.000000e+000
      outer loop
         vertex -2.889425e+001 -2.390340e+001 4.000000e+001
         vertex 1.806576e+001 -3.286150e+001 4.000000e+001
         vertex 2.204195e+001 -3.033814e+001 4.000000e+001
      endloop
   endfacet
   facet normal 0.000000e+000 0.000000e+000 1.000000e+000
      outer loop
         vertex -9.325871e+000 -3.632187e+001 4.000000e+001
         vertex 4.592426e-015 -3.750000e+001 4.000000e+001
         vertex -1.380467e+001 -3.486662e+001 4.000000e+001
      endloop
   endfacet
   facet normal 0.000000e+000 0.000000e+000 1.000000e+000
      outer loop
         vertex 2.204195e+001 -3.033814e+001 4.000000e+001
         vertex 2.567052e+001 -2.733632e+001 4.000000e+001
         vertex -2.889425e+001 -2.390340e+001 4.000000e+001
      endloop
   endfacet
   facet normal 0.000000e+000 0.000000e+000 1.000000e+000
      outer loop
         vertex -2.889425e+001 -2.390340e+001 4.000000e+001
         vertex 2.567052e+001 -2.733632e+001 4.000000e+001
         vertex 2.889425e+001 -2.390340e+001 4.000000e+001
      endloop
   endfacet
   facet normal 0.000000e+000 0.000000e+000 1.000000e+000
      outer loop
         vertex -2.889425e+001 -2.390340e+001 4.000000e+001
         vertex 2.889425e+001 -2.390340e+001 4.000000e+001
         vertex 3.166230e+001 -2.009350e+001 4.000000e+001
      endloop
   endfacet
   facet normal 0.000000e+000 0.000000e+000 1.000000e+000
      outer loop
         vertex 4.699996e+000 -3.720430e+001 4.000000e+001
         vertex -2.204195e+001 -3.033814e+001 4.000000e+001
         vertex 4.592426e-015 -3.750000e+001 4.000000e+001
      endloop
   endfacet
   facet normal 0.000000e+000 0.000000e+000 1.000000e+000
      outer loop
         vertex 4.592426e-015 -3.750000e+001 4.000000e+001
         vertex -2.204195e+001 -3.033814e+001 4.000000e+001
         vertex -1.806576e+001 -3.286150e+001 4.000000e+001
      endloop
   endfacet
   facet normal 0.000000e+000 0.000000e+000 1.000000e+000
      outer loop
         vertex 4.592426e-015 -3.750000e+001 4.000000e+001
         vertex -1.806576e+001 -3.286150e+001 4.000000e+001
         vertex -1.380467e+001 -3.486662e+001 4.000000e+001
      endloop
   endfacet
   facet normal -9.892687e-001 1.461073e-001 0.000000e+000
      outer loop
         vertex -3.742600e+001 2.354645e+000 0.000000e+000
         vertex -3.683577e+001 7.026800e+000 4.000000e+001
         vertex -3.683577e+001 7.026800e+000 0.000000e+000
      endloop
   endfacet
   facet normal -9.735845e-001 2.283270e-001 0.000000e+000
      outer loop
         vertex -3.683577e+001 7.026800e+000 0.000000e+000
         vertex -3.683577e+001 7.026800e+000 4.000000e+001
         vertex -3.566462e+001 1.158814e+001 4.000000e+001
      endloop
   endfacet
   facet normal -9.631560e-001 2.689435e-001 0.000000e+000
      outer loop
         vertex -3.683577e+001 7.026800e+000 0.000000e+000
         vertex -3.566462e+001 1.158814e+001 4.000000e+001
         vertex -3.566462e+001 1.158814e+001 0.000000e+000
      endloop
   endfacet
   facet normal -9.491208e-001 3.149123e-001 0.000000e+000
      outer loop
         vertex -3.566462e+001 1.158814e+001 0.000000e+000
         vertex -3.566462e+001 1.158814e+001 4.000000e+001
         vertex -3.544274e+001 1.225000e+001 4.000000e+001
      endloop
   endfacet
   facet normal -9.351075e-001 3.543641e-001 0.000000e+000
      outer loop
         vertex -3.566462e+001 1.158814e+001 0.000000e+000
         vertex -3.544274e+001 1.225000e+001 4.000000e+001
         vertex -3.393102e+001 1.596672e+001 0.000000e+000
      endloop
   endfacet
   facet normal -9.735845e-001 -2.283270e-001 0.000000e+000
      outer loop
         vertex -3.566462e+001 -1.158814e+001 0.000000e+000
         vertex -3.683577e+001 -7.026800e+000 4.000000e+001
         vertex -3.683577e+001 -7.026800e+000 0.000000e+000
      endloop
   endfacet
   facet normal -9.892687e-001 -1.461073e-001 0.000000e+000
      outer loop
         vertex -3.683577e+001 -7.026800e+000 0.000000e+000
         vertex -3.683577e+001 -7.026800e+000 4.000000e+001
         vertex -3.742600e+001 -2.354645e+000 4.000000e+001
      endloop
   endfacet
   facet normal -9.945245e-001 -1.045041e-001 0.000000e+000
      outer loop
         vertex -3.683577e+001 -7.026800e+000 0.000000e+000
         vertex -3.742600e+001 -2.354645e+000 4.000000e+001
         vertex -3.742600e+001 -2.354645e+000 0.000000e+000
      endloop
   endfacet
   facet normal -9.991227e-001 -4.187872e-002 0.000000e+000
      outer loop
         vertex -3.742600e+001 -2.354645e+000 0.000000e+000
         vertex -3.742600e+001 -2.354645e+000 4.000000e+001
         vertex -3.750000e+001 -6.888638e-015 4.000000e+001
      endloop
   endfacet
   facet normal -1.000000e+000 0.000000e+000 0.000000e+000
      outer loop
         vertex -3.742600e+001 -2.354645e+000 0.000000e+000
         vertex -3.750000e+001 -6.888638e-015 4.000000e+001
         vertex -3.742600e+001 2.354645e+000 0.000000e+000
      endloop
   endfacet
   facet normal -9.991227e-001 4.187872e-002 0.000000e+000
      outer loop
         vertex -3.742600e+001 2.354645e+000 0.000000e+000
         vertex -3.750000e+001 -6.888638e-015 4.000000e+001
         vertex -3.742600e+001 2.354645e+000 4.000000e+001
      endloop
   endfacet
   facet normal -9.945245e-001 1.045041e-001 0.000000e+000
      outer loop
         vertex -3.742600e+001 2.354645e+000 0.000000e+000
         vertex -3.742600e+001 2.354645e+000 4.000000e+001
         vertex -3.683577e+001 7.026800e+000 4.000000e+001
      endloop
   endfacet
   facet normal 8.660131e-001 -5.000213e-001 0.000000e+000
      outer loop
         vertex 3.393102e+001 -1.596672e+001 0.000000e+000
         vertex 3.166230e+001 -2.009350e+001 4.000000e+001
         vertex 3.166230e+001 -2.009350e+001 0.000000e+000
      endloop
   endfacet
   facet normal 8.211632e-001 -5.706934e-001 0.000000e+000
      outer loop
         vertex 3.166230e+001 -2.009350e+001 0.000000e+000
         vertex 3.166230e+001 -2.009350e+001 4.000000e+001
         vertex 2.889425e+001 -2.390340e+001 4.000000e+001
      endloop
   endfacet
   facet normal 7.965151e-001 -6.046186e-001 0.000000e+000
      outer loop
         vertex 3.166230e+001 -2.009350e+001 0.000000e+000
         vertex 2.889425e+001 -2.390340e+001 4.000000e+001
         vertex 2.889425e+001 -2.390340e+001 0.000000e+000
      endloop
   endfacet
   facet normal 7.431612e-001 -6.691124e-001 0.000000e+000
      outer loop
         vertex 2.889425e+001 -2.390340e+001 0.000000e+000
         vertex 2.889425e+001 -2.390340e+001 4.000000e+001
         vertex 2.567052e+001 -2.733632e+001 4.000000e+001
      endloop
   endfacet
   facet normal 7.144555e-001 -6.996809e-001 0.000000e+000
      outer loop
         vertex 2.889425e+001 -2.390340e+001 0.000000e+000
         vertex 2.567052e+001 -2.733632e+001 4.000000e+001
         vertex 2.567052e+001 -2.733632e+001 0.000000e+000
      endloop
   endfacet
   facet normal 6.534392e-001 -7.569790e-001 0.000000e+000
      outer loop
         vertex 2.567052e+001 -2.733632e+001 0.000000e+000
         vertex 2.567052e+001 -2.733632e+001 4.000000e+001
         vertex 2.204195e+001 -3.033814e+001 4.000000e+001
      endloop
   endfacet
   facet normal 6.211286e-001 -7.837087e-001 0.000000e+000
      outer loop
         vertex 2.567052e+001 -2.733632e+001 0.000000e+000
         vertex 2.204195e+001 -3.033814e+001 4.000000e+001
         vertex 2.204195e+001 -3.033814e+001 0.000000e+000
      endloop
   endfacet
   facet normal 5.534120e-001 -8.329076e-001 0.000000e+000
      outer loop
         vertex 2.204195e+001 -3.033814e+001 0.000000e+000
         vertex 2.204195e+001 -3.033814e+001 4.000000e+001
         vertex 1.806576e+001 -3.286150e+001 4.000000e+001
      endloop
   endfacet
   facet normal 5.180060e-001 -8.553770e-001 0.000000e+000
      outer loop
         vertex 2.204195e+001 -3.033814e+001 0.000000e+000
         vertex 1.806576e+001 -3.286150e+001 4.000000e+001
         vertex 1.806576e+001 -3.286150e+001 0.000000e+000
      endloop
   endfacet
   facet normal 4.446572e-001 -8.957009e-001 0.000000e+000
      outer loop
         vertex 1.806576e+001 -3.286150e+001 0.000000e+000
         vertex 1.806576e+001 -3.286150e+001 4.000000e+001
         vertex 1.380467e+001 -3.486662e+001 4.000000e+001
      endloop
   endfacet
   facet normal 4.067143e-001 -9.135554e-001 0.000000e+000
      outer loop
         vertex 1.806576e+001 -3.286150e+001 0.000000e+000
         vertex 1.380467e+001 -3.486662e+001 4.000000e+001
         vertex 1.380467e+001 -3.486662e+001 0.000000e+000
      endloop
   endfacet
   facet normal 3.288898e-001 -9.443683e-001 0.000000e+000
      outer loop
         vertex 1.380467e+001 -3.486662e+001 0.000000e+000
         vertex 1.380467e+001 -3.486662e+001 4.000000e+001
         vertex 9.325871e+000 -3.632187e+001 4.000000e+001
      endloop
   endfacet
   facet normal 2.890083e-001 -9.573266e-001 0.000000e+000
      outer loop
         vertex 1.380467e+001 -3.486662e+001 0.000000e+000
         vertex 9.325871e+000 -3.632187e+001 4.000000e+001
         vertex 9.325871e+000 -3.632187e+001 0.000000e+000
      endloop
   endfacet
   facet normal 2.079357e-001 -9.781425e-001 0.000000e+000
      outer loop
         vertex 9.325871e+000 -3.632187e+001 0.000000e+000
         vertex 9.325871e+000 -3.632187e+001 4.000000e+001
         vertex 4.699996e+000 -3.720430e+001 4.000000e+001
      endloop
   endfacet
   facet normal 1.667446e-001 -9.860001e-001 0.000000e+000
      outer loop
         vertex 9.325871e+000 -3.632187e+001 0.000000e+000
         vertex 4.699996e+000 -3.720430e+001 4.000000e+001
         vertex 4.699996e+000 -3.720430e+001 0.000000e+000
      endloop
   endfacet
   facet normal 8.370229e-002 -9.964908e-001 0.000000e+000
      outer loop
         vertex 4.699996e+000 -3.720430e+001 0.000000e+000
         vertex 4.699996e+000 -3.720430e+001 4.000000e+001
         vertex 4.592426e-015 -3.750000e+001 4.000000e+001
      endloop
   endfacet
   facet normal 4.185114e-002 -9.991239e-001 0.000000e+000
      outer loop
         vertex 4.699996e+000 -3.720430e+001 0.000000e+000
         vertex 4.592426e-015 -3.750000e+001 4.000000e+001
         vertex 4.592426e-015 -3.750000e+001 0.000000e+000
      endloop
   endfacet
   facet normal -4.185114e-002 -9.991239e-001 0.000000e+000
      outer loop
         vertex 4.592426e-015 -3.750000e+001 0.000000e+000
         vertex 4.592426e-015 -3.750000e+001 4.000000e+001
         vertex -4.699996e+000 -3.720430e+001 4.000000e+001
      endloop
   endfacet
   facet normal -8.370229e-002 -9.964908e-001 0.000000e+000
      outer loop
         vertex 4.592426e-015 -3.750000e+001 0.000000e+000
         vertex -4.699996e+000 -3.720430e+001 4.000000e+001
         vertex -4.699996e+000 -3.720430e+001 0.000000e+000
      endloop
   endfacet
   facet normal -1.667446e-001 -9.860001e-001 0.000000e+000
      outer loop
         vertex -4.699996e+000 -3.720430e+001 0.000000e+000
         vertex -4.699996e+000 -3.720430e+001 4.000000e+001
         vertex -9.325871e+000 -3.632187e+001 4.000000e+001
      endloop
   endfacet
   facet normal -2.079357e-001 -9.781425e-001 0.000000e+000
      outer loop
         vertex -4.699996e+000 -3.720430e+001 0.000000e+000
         vertex -9.325871e+000 -3.632187e+001 4.000000e+001
         vertex -9.325871e+000 -3.632187e+001 0.000000e+000
      endloop
   endfacet
   facet normal -2.890083e-001 -9.573266e-001 0.000000e+000
      outer loop
         vertex -9.325871e+000 -3.632187e+001 0.000000e+000
         vertex -9.325871e+000 -3.632187e+001 4.000000e+001
         vertex -1.380467e+001 -3.486662e+001 4.000000e+001
      endloop
   endfacet
   facet normal -3.288898e-001 -9.443683e-001 0.000000e+000
      outer loop
         vertex -9.325871e+000 -3.632187e+001 0.000000e+000
         vertex -1.380467e+001 -3.486662e+001 4.000000e+001
         vertex -1.380467e+001 -3.486662e+001 0.000000e+000
      endloop
   endfacet
   facet normal -4.067143e-001 -9.135554e-001 0.000000e+000
      outer loop
         vertex -1.380467e+001 -3.486662e+001 0.000000e+000
         vertex -1.380467e+001 -3.486662e+001 4.000000e+001
         vertex -1.806576e+001 -3.286150e+001 4.000000e+001
      endloop
   endfacet
   facet normal -4.446572e-001 -8.957009e-001 0.000000e+000
      outer loop
         vertex -1.380467e+001 -3.486662e+001 0.000000e+000
         vertex -1.806576e+001 -3.286150e+001 4.000000e+001
         vertex -1.806576e+001 -3.286150e+001 0.000000e+000
      endloop
   endfacet
   facet normal -5.180060e-001 -8.553770e-001 0.000000e+000
      outer loop
         vertex -1.806576e+001 -3.286150e+001 0.000000e+000
         vertex -1.806576e+001 -3.286150e+001 4.000000e+001
         vertex -2.204195e+001 -3.033814e+001 4.000000e+001
      endloop
   endfacet
   facet normal -5.534120e-001 -8.329076e-001 0.000000e+000
      outer loop
         vertex -1.806576e+001 -3.286150e+001 0.000000e+000
         vertex -2.204195e+001 -3.033814e+001 4.000000e+001
         vertex -2.204195e+001 -3.033814e+001 0.000000e+000
      endloop
   endfacet
   facet normal -6.211286e-001 -7.837087e-001 0.000000e+000
      outer loop
         vertex -2.204195e+001 -3.033814e+001 0.000000e+000
         vertex -2.204195e+001 -3.033814e+001 4.000000e+001
         vertex -2.567052e+001 -2.733632e+001 4.000000e+001
      endloop
   endfacet
   facet normal -6.534392e-001 -7.569790e-001 0.000000e+000
      outer loop
         vertex -2.204195e+001 -3.033814e+001 0.000000e+000
         vertex -2.567052e+001 -2.733632e+001 4.000000e+001
         vertex -2.567052e+001 -2.733632e+001 0.000000e+000
      endloop
   endfacet
   facet normal -7.144555e-001 -6.996809e-001 0.000000e+000
      outer loop
         vertex -2.567052e+001 -2.733632e+001 0.000000e+000
         vertex -2.567052e+001 -2.733632e+001 4.000000e+001
         vertex -2.889425e+001 -2.390340e+001 4.000000e+001
      endloop
   endfacet
   facet normal -7.431612e-001 -6.691124e-001 0.000000e+000
      outer loop
         vertex -2.567052e+001 -2.733632e+001 0.000000e+000
         vertex -2.889425e+001 -2.390340e+001 4.000000e+001
         vertex -2.889425e+001 -2.390340e+001 0.000000e+000
      endloop
   endfacet
   facet normal -7.965151e-001 -6.046186e-001 0.000000e+000
      outer loop
         vertex -2.889425e+001 -2.390340e+001 0.000000e+000
         vertex -2.889425e+001 -2.390340e+001 4.000000e+001
         vertex -3.166230e+001 -2.009350e+001 4.000000e+001
      endloop
   endfacet
   facet normal -8.211632e-001 -5.706934e-001 0.000000e+000
      outer loop
         vertex -2.889425e+001 -2.390340e+001 0.000000e+000
         vertex -3.166230e+001 -2.009350e+001 4.000000e+001
         vertex -3.166230e+001 -2.009350e+001 0.000000e+000
      endloop
   endfacet
   facet normal -8.660131e-001 -5.000213e-001 0.000000e+000
      outer loop
         vertex -3.166230e+001 -2.009350e+001 0.000000e+000
         vertex -3.166230e+001 -2.009350e+001 4.000000e+001
         vertex -3.393102e+001 -1.596672e+001 4.000000e+001
      endloop
   endfacet
   facet normal -8.862150e-001 -4.632743e-001 0.000000e+000
      outer loop
         vertex -3.166230e+001 -2.009350e+001 0.000000e+000
         vertex -3.393102e+001 -1.596672e+001 4.000000e+001
         vertex -3.393102e+001 -1.596672e+001 0.000000e+000
      endloop
   endfacet
   facet normal -9.194349e-001 -3.932423e-001 0.000000e+000
      outer loop
         vertex -3.393102e+001 -1.596672e+001 0.000000e+000
         vertex -3.393102e+001 -1.596672e+001 4.000000e+001
         vertex -3.544274e+001 -1.225000e+001 4.000000e+001
      endloop
   endfacet
   facet normal -9.351075e-001 -3.543641e-001 0.000000e+000
      outer loop
         vertex -3.393102e+001 -1.596672e+001 0.000000e+000
         vertex -3.544274e+001 -1.225000e+001 4.000000e+001
         vertex -3.566462e+001 -1.158814e+001 0.000000e+000
      endloop
   endfacet
   facet normal -9.491208e-001 -3.149123e-001 0.000000e+000
      outer loop
         vertex -3.566462e+001 -1.158814e+001 0.000000e+000
         vertex -3.544274e+001 -1.225000e+001 4.000000e+001
         vertex -3.566462e+001 -1.158814e+001 4.000000e+001
      endloop
   endfacet
   facet normal -9.631560e-001 -2.689435e-001 0.000000e+000
      outer loop
         vertex -3.566462e+001 -1.158814e+001 0.000000e+000
         vertex -3.566462e+001 -1.158814e+001 4.000000e+001
         vertex -3.683577e+001 -7.026800e+000 4.000000e+001
      endloop
   endfacet
   facet normal 9.892687e-001 -1.461073e-001 0.000000e+000
      outer loop
         vertex 3.742600e+001 -2.354645e+000 0.000000e+000
         vertex 3.683577e+001 -7.026800e+000 4.000000e+001
         vertex 3.683577e+001 -7.026800e+000 0.000000e+000
      endloop
   endfacet
   facet normal 9.735845e-001 -2.283270e-001 0.000000e+000
      outer loop
         vertex 3.683577e+001 -7.026800e+000 0.000000e+000
         vertex 3.683577e+001 -7.026800e+000 4.000000e+001
         vertex 3.566462e+001 -1.158814e+001 4.000000e+001
      endloop
   endfacet
   facet normal 9.631560e-001 -2.689435e-001 0.000000e+000
      outer loop
         vertex 3.683577e+001 -7.026800e+000 0.000000e+000
         vertex 3.566462e+001 -1.158814e+001 4.000000e+001
         vertex 3.566462e+001 -1.158814e+001 0.000000e+000
      endloop
   endfacet
   facet normal 9.491208e-001 -3.149123e-001 0.000000e+000
      outer loop
         vertex 3.566462e+001 -1.158814e+001 0.000000e+000
         vertex 3.566462e+001 -1.158814e+001 4.000000e+001
         vertex 3.544274e+001 -1.225000e+001 4.000000e+001
      endloop
   endfacet
   facet normal 9.351075e-001 -3.543641e-001 0.000000e+000
      outer loop
         vertex 3.566462e+001 -1.158814e+001 0.000000e+000
         vertex 3.544274e+001 -1.225000e+001 4.000000e+001
         vertex 3.393102e+001 -1.596672e+001 0.000000e+000
      endloop
   endfacet
   facet normal 9.194349e-001 -3.932423e-001 0.000000e+000
      outer loop
         vertex 3.393102e+001 -1.596672e+001 0.000000e+000
         vertex 3.544274e+001 -1.225000e+001 4.000000e+001
         vertex 3.393102e+001 -1.596672e+001 4.000000e+001
      endloop
   endfacet
   facet normal 8.862150e-001 -4.632743e-001 0.000000e+000
      outer loop
         vertex 3.393102e+001 -1.596672e+001 0.000000e+000
         vertex 3.393102e+001 -1.596672e+001 4.000000e+001
         vertex 3.166230e+001 -2.009350e+001 4.000000e+001
      endloop
   endfacet
   facet normal 9.735845e-001 2.283270e-001 0.000000e+000
      outer loop
         vertex 3.566462e+001 1.158814e+001 0.000000e+000
         vertex 3.683577e+001 7.026800e+000 4.000000e+001
         vertex 3.683577e+001 7.026800e+000 0.000000e+000
      endloop
   endfacet
   facet normal 9.892687e-001 1.461073e-001 0.000000e+000
      outer loop
         vertex 3.683577e+001 7.026800e+000 0.000000e+000
         vertex 3.683577e+001 7.026800e+000 4.000000e+001
         vertex 3.742600e+001 2.354645e+000 4.000000e+001
      endloop
   endfacet
   facet normal 9.945245e-001 1.045041e-001 0.000000e+000
      outer loop
         vertex 3.683577e+001 7.026800e+000 0.000000e+000
         vertex 3.742600e+001 2.354645e+000 4.000000e+001
         vertex 3.742600e+001 2.354645e+000 0.000000e+000
      endloop
   endfacet
   facet normal 9.991227e-001 4.187872e-002 0.000000e+000
      outer loop
         vertex 3.742600e+001 2.354645e+000 0.000000e+000
         vertex 3.742600e+001 2.354645e+000 4.000000e+001
         vertex 3.750000e+001 2.296213e-015 4.000000e+001
      endloop
   endfacet
   facet normal 1.000000e+000 0.000000e+000 0.000000e+000
      outer loop
         vertex 3.742600e+001 2.354645e+000 0.000000e+000
         vertex 3.750000e+001 2.296213e-015 4.000000e+001
         vertex 3.742600e+001 -2.354645e+000 0.000000e+000
      endloop
   endfacet
   facet normal 9.991227e-001 -4.187872e-002 0.000000e+000
      outer loop
         vertex 3.742600e+001 -2.354645e+000 0.000000e+000
         vertex 3.750000e+001 2.296213e-015 4.000000e+001
         vertex 3.742600e+001 -2.354645e+000 4.000000e+001
      endloop
   endfacet
   facet normal 9.945245e-001 -1.045041e-001 0.000000e+000
      outer loop
         vertex 3.742600e+001 -2.354645e+000 0.000000e+000
         vertex 3.742600e+001 -2.354645e+000 4.000000e+001
         vertex 3.683577e+001 -7.026800e+000 4.000000e+001
      endloop
   endfacet
   facet normal -9.194349e-001 3.932423e-001 0.000000e+000
      outer loop
         vertex -3.544274e+001 1.225000e+001 4.000000e+001
         vertex -3.393102e+001 1.596672e+001 4.000000e+001
         vertex -3.393102e+001 1.596672e+001 0.000000e+000
      endloop
   endfacet
   facet normal -8.862150e-001 4.632743e-001 0.000000e+000
      outer loop
         vertex -3.393102e+001 1.596672e+001 0.000000e+000
         vertex -3.393102e+001 1.596672e+001 4.000000e+001
         vertex -3.166230e+001 2.009350e+001 4.000000e+001
      endloop
   endfacet
   facet normal -8.660131e-001 5.000213e-001 0.000000e+000
      outer loop
         vertex -3.393102e+001 1.596672e+001 0.000000e+000
         vertex -3.166230e+001 2.009350e+001 4.000000e+001
         vertex -3.166230e+001 2.009350e+001 0.000000e+000
      endloop
   endfacet
   facet normal -8.211632e-001 5.706934e-001 0.000000e+000
      outer loop
         vertex -3.166230e+001 2.009350e+001 0.000000e+000
         vertex -3.166230e+001 2.009350e+001 4.000000e+001
         vertex -2.889425e+001 2.390340e+001 4.000000e+001
      endloop
   endfacet
   facet normal -7.965151e-001 6.046186e-001 0.000000e+000
      outer loop
         vertex -3.166230e+001 2.009350e+001 0.000000e+000
         vertex -2.889425e+001 2.390340e+001 4.000000e+001
         vertex -2.889425e+001 2.390340e+001 0.000000e+000
      endloop
   endfacet
   facet normal -7.431612e-001 6.691124e-001 0.000000e+000
      outer loop
         vertex -2.889425e+001 2.390340e+001 0.000000e+000
         vertex -2.889425e+001 2.390340e+001 4.000000e+001
         vertex -2.567052e+001 2.733632e+001 4.000000e+001
      endloop
   endfacet
   facet normal -7.144555e-001 6.996809e-001 0.000000e+000
      outer loop
         vertex -2.889425e+001 2.390340e+001 0.000000e+000
         vertex -2.567052e+001 2.733632e+001 4.000000e+001
         vertex -2.567052e+001 2.733632e+001 0.000000e+000
      endloop
   endfacet
   facet normal -6.534392e-001 7.569790e-001 0.000000e+000
      outer loop
         vertex -2.567052e+001 2.733632e+001 0.000000e+000
         vertex -2.567052e+001 2.733632e+001 4.000000e+001
         vertex -2.204195e+001 3.033814e+001 4.000000e+001
      endloop
   endfacet
   facet normal -6.211286e-001 7.837087e-001 0.000000e+000
      outer loop
         vertex -2.567052e+001 2.733632e+001 0.000000e+000
         vertex -2.204195e+001 3.033814e+001 4.000000e+001
         vertex -2.204195e+001 3.033814e+001 0.000000e+000
      endloop
   endfacet
   facet normal -5.534120e-001 8.329076e-001 0.000000e+000
      outer loop
         vertex -2.204195e+001 3.033814e+001 0.000000e+000
         vertex -2.204195e+001 3.033814e+001 4.000000e+001
         vertex -1.806576e+001 3.286150e+001 4.000000e+001
      endloop
   endfacet
   facet normal -5.180060e-001 8.553770e-001 0.000000e+000
      outer loop
         vertex -2.204195e+001 3.033814e+001 0.000000e+000
         vertex -1.806576e+001 3.286150e+001 4.000000e+001
         vertex -1.806576e+001 3.286150e+001 0.000000e+000
      endloop
   endfacet
   facet normal -4.446572e-001 8.957009e-001 0.000000e+000
      outer loop
         vertex -1.806576e+001 3.286150e+001 0.000000e+000
         vertex -1.806576e+001 3.286150e+001 4.000000e+001
         vertex -1.380467e+001 3.486662e+001 4.000000e+001
      endloop
   endfacet
   facet normal -4.067143e-001 9.135554e-001 0.000000e+000
      outer loop
         vertex -1.806576e+001 3.286150e+001 0.000000e+000
         vertex -1.380467e+001 3.486662e+001 4.000000e+001
         vertex -1.380467e+001 3.486662e+001 0.000000e+000
      endloop
   endfacet
   facet normal -3.288898e-001 9.443683e-001 0.000000e+000
      outer loop
         vertex -1.380467e+001 3.486662e+001 0.000000e+000
         vertex -1.380467e+001 3.486662e+001 4.000000e+001
         vertex -9.325871e+000 3.632187e+001 4.000000e+001
      endloop
   endfacet
   facet normal -2.890083e-001 9.573266e-001 0.000000e+000
      outer loop
         vertex -1.380467e+001 3.486662e+001 0.000000e+000
         vertex -9.325871e+000 3.632187e+001 4.000000e+001
         vertex -9.325871e+000 3.632187e+001 0.000000e+000
      endloop
   endfacet
   facet normal -2.079357e-001 9.781425e-001 0.000000e+000
      outer loop
         vertex -9.325871e+000 3.632187e+001 0.000000e+000
         vertex -9.325871e+000 3.632187e+001 4.000000e+001
         vertex -4.699996e+000 3.720430e+001 4.000000e+001
      endloop
   endfacet
   facet normal -1.667446e-001 9.860001e-001 0.000000e+000
      outer loop
         vertex -9.325871e+000 3.632187e+001 0.000000e+000
         vertex -4.699996e+000 3.720430e+001 4.000000e+001
         vertex -4.699996e+000 3.720430e+001 0.000000e+000
      endloop
   endfacet
   facet normal -8.370229e-002 9.964908e-001 0.000000e+000
      outer loop
         vertex -4.699996e+000 3.720430e+001 0.000000e+000
         vertex -4.699996e+000 3.720430e+001 4.000000e+001
         vertex 0.000000e+000 3.750000e+001 4.000000e+001
      endloop
   endfacet
   facet normal -4.185114e-002 9.991239e-001 0.000000e+000
      outer loop
         vertex -4.699996e+000 3.720430e+001 0.000000e+000
         vertex 0.000000e+000 3.750000e+001 4.000000e+001
         vertex 0.000000e+000 3.750000e+001 0.000000e+000
      endloop
   endfacet
   facet normal 4.185114e-002 9.991239e-001 0.000000e+000
      outer loop
         vertex 0.000000e+000 3.750000e+001 0.000000e+000
         vertex 0.000000e+000 3.750000e+001 4.000000e+001
         vertex 4.699996e+000 3.720430e+001 4.000000e+001
      endloop
   endfacet
   facet normal 8.370229e-002 9.964908e-001 0.000000e+000
      outer loop
         vertex 0.000000e+000 3.750000e+001 0.000000e+000
         vertex 4.699996e+000 3.720430e+001 4.000000e+001
         vertex 4.699996e+000 3.720430e+001 0.000000e+000
      endloop
   endfacet
   facet normal 1.667446e-001 9.860001e-001 0.000000e+000
      outer loop
         vertex 4.699996e+000 3.720430e+001 0.000000e+000
         vertex 4.699996e+000 3.720430e+001 4.000000e+001
         vertex 9.325871e+000 3.632187e+001 4.000000e+001
      endloop
   endfacet
   facet normal 2.079357e-001 9.781425e-001 0.000000e+000
      outer loop
         vertex 4.699996e+000 3.720430e+001 0.000000e+000
         vertex 9.325871e+000 3.632187e+001 4.000000e+001
         vertex 9.325871e+000 3.632187e+001 0.000000e+000
      endloop
   endfacet
   facet normal 2.890083e-001 9.573266e-001 0.000000e+000
      outer loop
         vertex 9.325871e+000 3.632187e+001 0.000000e+000
         vertex 9.325871e+000 3.632187e+001 4.000000e+001
         vertex 1.380467e+001 3.486662e+001 4.000000e+001
      endloop
   endfacet
   facet normal 3.288898e-001 9.443683e-001 0.000000e+000
      outer loop
         vertex 9.325871e+000 3.632187e+001 0.000000e+000
         vertex 1.380467e+001 3.486662e+001 4.000000e+001
         vertex 1.380467e+001 3.486662e+001 0.000000e+000
      endloop
   endfacet
   facet normal 4.067143e-001 9.135554e-001 0.000000e+000
      outer loop
         vertex 1.380467e+001 3.486662e+001 0.000000e+000
         vertex 1.380467e+001 3.486662e+001 4.000000e+001
         vertex 1.806576e+001 3.286150e+001 4.000000e+001
      endloop
   endfacet
   facet normal 4.446572e-001 8.957009e-001 0.000000e+000
      outer loop
         vertex 1.380467e+001 3.486662e+001 0.000000e+000
         vertex 1.806576e+001 3.286150e+001 4.000000e+001
         vertex 1.806576e+001 3.286150e+001 0.000000e+000
      endloop
   endfacet
   facet normal 5.180060e-001 8.553770e-001 0.000000e+000
      outer loop
         vertex 1.806576e+001 3.286150e+001 0.000000e+000
         vertex 1.806576e+001 3.286150e+001 4.000000e+001
         vertex 2.204195e+001 3.033814e+001 4.000000e+001
      endloop
   endfacet
   facet normal 5.534120e-001 8.329076e-001 0.000000e+000
      outer loop
         vertex 1.806576e+001 3.286150e+001 0.000000e+000
         vertex 2.204195e+001 3.033814e+001 4.000000e+001
         vertex 2.204195e+001 3.033814e+001 0.000000e+000
      endloop
   endfacet
   facet normal 6.211286e-001 7.837087e-001 0.000000e+000
      outer loop
         vertex 2.204195e+001 3.033814e+001 0.000000e+000
         vertex 2.204195e+001 3.033814e+001 4.000000e+001
         vertex 2.567052e+001 2.733632e+001 4.000000e+001
      endloop
   endfacet
   facet normal 6.534392e-001 7.569790e-001 0.000000e+000
      outer loop
         vertex 2.204195e+001 3.033814e+001 0.000000e+000
         vertex 2.567052e+001 2.733632e+001 4.000000e+001
         vertex 2.567052e+001 2.733632e+001 0.000000e+000
      endloop
   endfacet
   facet normal 7.144555e-001 6.996809e-001 0.000000e+000
      outer loop
         vertex 2.567052e+001 2.733632e+001 0.000000e+000
         vertex 2.567052e+001 2.733632e+001 4.000000e+001
         vertex 2.889425e+001 2.390340e+001 4.000000e+001
      endloop
   endfacet
   facet normal 7.431612e-001 6.691124e-001 0.000000e+000
      outer loop
         vertex 2.567052e+001 2.733632e+001 0.000000e+000
         vertex 2.889425e+001 2.390340e+001 4.000000e+001
         vertex 2.889425e+001 2.390340e+001 0.000000e+000
      endloop
   endfacet
   facet normal 7.965151e-001 6.046186e-001 0.000000e+000
      outer loop
         vertex 2.889425e+001 2.390340e+001 0.000000e+000
         vertex 2.889425e+001 2.390340e+001 4.000000e+001
         vertex 3.166230e+001 2.009350e+001 4.000000e+001
      endloop
   endfacet
   facet normal 8.211632e-001 5.706934e-001 0.000000e+000
      outer loop
         vertex 2.889425e+001 2.390340e+001 0.000000e+000
         vertex 3.166230e+001 2.009350e+001 4.000000e+001
         vertex 3.166230e+001 2.009350e+001 0.000000e+000
      endloop
   endfacet
   facet normal 8.660131e-001 5.000213e-001 0.000000e+000
      outer loop
         vertex 3.166230e+001 2.009350e+001 0.000000e+000
         vertex 3.166230e+001 2.009350e+001 4.000000e+001
         vertex 3.393102e+001 1.596672e+001 4.000000e+001
      endloop
   endfacet
   facet normal 8.862150e-001 4.632743e-001 0.000000e+000
      outer loop
         vertex 3.166230e+001 2.009350e+001 0.000000e+000
         vertex 3.393102e+001 1.596672e+001 4.000000e+001
         vertex 3.393102e+001 1.596672e+001 0.000000e+000
      endloop
   endfacet
   facet normal 9.194349e-001 3.932423e-001 0.000000e+000
      outer loop
         vertex 3.393102e+001 1.596672e+001 0.000000e+000
         vertex 3.393102e+001 1.596672e+001 4.000000e+001
         vertex 3.544274e+001 1.225000e+001 4.000000e+001
      endloop
   endfacet
   facet normal 9.351075e-001 3.543641e-001 0.000000e+000
      outer loop
         vertex 3.393102e+001 1.596672e+001 0.000000e+000
         vertex 3.544274e+001 1.225000e+001 4.000000e+001
         vertex 3.566462e+001 1.158814e+001 0.000000e+000
      endloop
   endfacet
   facet normal 9.491208e-001 3.149123e-001 0.000000e+000
      outer loop
         vertex 3.566462e+001 1.158814e+001 0.000000e+000
         vertex 3.544274e+001 1.225000e+001 4.000000e+001
         vertex 3.566462e+001 1.158814e+001 4.000000e+001
      endloop
   endfacet
   facet normal 9.631560e-001 2.689435e-001 0.000000e+000
      outer loop
         vertex 3.566462e+001 1.158814e+001 0.000000e+000
         vertex 3.566462e+001 1.158814e+001 4.000000e+001
         vertex 3.683577e+001 7.026800e+000 4.000000e+001
      endloop
   endfacet
   facet normal 0.000000e+000 0.000000e+000 1.000000e+000
      outer loop
         vertex -3.544274e+001 1.225000e+001 4.000000e+001
         vertex 3.544274e+001 1.225000e+001 4.000000e+001
         vertex 3.393102e+001 1.596672e+001 4.000000e+001
      endloop
   endfacet
   facet normal 0.000000e+000 0.000000e+000 1.000000e+000
      outer loop
         vertex -3.544274e+001 1.225000e+001 4.000000e+001
         vertex 3.393102e+001 1.596672e+001 4.000000e+001
         vertex -3.393102e+001 1.596672e+001 4.000000e+001
      endloop
   endfacet
   facet normal 0.000000e+000 0.000000e+000 1.000000e+000
      outer loop
         vertex -3.393102e+001 1.596672e+001 4.000000e+001
         vertex 3.393102e+001 1.596672e+001 4.000000e+001
         vertex 3.166230e+001 2.009350e+001 4.000000e+001
      endloop
   endfacet
   facet normal 0.000000e+000 0.000000e+000 1.000000e+000
      outer loop
         vertex -3.393102e+001 1.596672e+001 4.000000e+001
         vertex 3.166230e+001 2.009350e+001 4.000000e+001
         vertex 2.889425e+001 2.390340e+001 4.000000e+001
      endloop
   endfacet
   facet normal 0.000000e+000 0.000000e+000 1.000000e+000
      outer loop
         vertex 2.889425e+001 2.390340e+001 4.000000e+001
         vertex 2.567052e+001 2.733632e+001 4.000000e+001
         vertex -3.393102e+001 1.596672e+001 4.000000e+001
      endloop
   endfacet
   facet normal 0.000000e+000 0.000000e+000 1.000000e+000
      outer loop
         vertex -3.393102e+001 1.596672e+001 4.000000e+001
         vertex 2.567052e+001 2.733632e+001 4.000000e+001
         vertex 2.204195e+001 3.033814e+001 4.000000e+001
      endloop
   endfacet
   facet normal 0.000000e+000 0.000000e+000 1.000000e+000
      outer loop
         vertex -3.393102e+001 1.596672e+001 4.000000e+001
         vertex 2.204195e+001 3.033814e+001 4.000000e+001
         vertex 1.806576e+001 3.286150e+001 4.000000e+001
      endloop
   endfacet
   facet normal 0.000000e+000 0.000000e+000 1.000000e+000
      outer loop
         vertex 4.699996e+000 3.720430e+001 4.000000e+001
         vertex 0.000000e+000 3.750000e+001 4.000000e+001
         vertex -3.393102e+001 1.596672e+001 4.000000e+001
      endloop
   endfacet
   facet normal 0.000000e+000 0.000000e+000 1.000000e+000
      outer loop
         vertex -3.393102e+001 1.596672e+001 4.000000e+001
         vertex 0.000000e+000 3.750000e+001 4.000000e+001
         vertex -4.699996e+000 3.720430e+001 4.000000e+001
      endloop
   endfacet
   facet normal 0.000000e+000 0.000000e+000 1.000000e+000
      outer loop
         vertex -4.699996e+000 3.720430e+001 4.000000e+001
         vertex -9.325871e+000 3.632187e+001 4.000000e+001
         vertex -3.393102e+001 1.596672e+001 4.000000e+001
      endloop
   endfacet
   facet normal 0.000000e+000 0.000000e+000 1.000000e+000
      outer loop
         vertex -3.393102e+001 1.596672e+001 4.000000e+001
         vertex -9.325871e+000 3.632187e+001 4.000000e+001
         vertex -1.380467e+001 3.486662e+001 4.000000e+001
      endloop
   endfacet
   facet normal 0.000000e+000 0.000000e+000 1.000000e+000
      outer loop
         vertex -3.393102e+001 1.596672e+001 4.000000e+001
         vertex -1.380467e+001 3.486662e+001 4.000000e+001
         vertex -1.806576e+001 3.286150e+001 4.000000e+001
      endloop
   endfacet
   facet normal 0.000000e+000 0.000000e+000 1.000000e+000
      outer loop
         vertex 1.806576e+001 3.286150e+001 4.000000e+001
         vertex 1.380467e+001 3.486662e+001 4.000000e+001
         vertex -3.393102e+001 1.596672e+001 4.000000e+001
      endloop
   endfacet
   facet normal 0.000000e+000 0.000000e+000 1.000000e+000
      outer loop
         vertex -3.393102e+001 1.596672e+001 4.000000e+001
         vertex 1.380467e+001 3.486662e+001 4.000000e+001
         vertex 9.325871e+000 3.632187e+001 4.000000e+001
      endloop
   endfacet
   facet normal 0.000000e+000 0.000000e+000 1.000000e+000
      outer loop
         vertex -3.393102e+001 1.596672e+001 4.000000e+001
         vertex 9.325871e+000 3.632187e+001 4.000000e+001
         vertex 4.699996e+000 3.720430e+001 4.000000e+001
      endloop
   endfacet
   facet normal 0.000000e+000 0.000000e+000 1.000000e+000
      outer loop
         vertex -1.806576e+001 3.286150e+001 4.000000e+001
         vertex -2.204195e+001 3.033814e+001 4.000000e+001
         vertex -3.393102e+001 1.596672e+001 4.000000e+001
      endloop
   endfacet
   facet normal 0.000000e+000 0.000000e+000 1.000000e+000
      outer loop
         vertex -3.393102e+001 1.596672e+001 4.000000e+001
         vertex -2.204195e+001 3.033814e+001 4.000000e+001
         vertex -2.567052e+001 2.733632e+001 4.000000e+001
      endloop
   endfacet
   facet normal 0.000000e+000 0.000000e+000 1.000000e+000
      outer loop
         vertex -3.393102e+001 1.596672e+001 4.000000e+001
         vertex -2.567052e+001 2.733632e+001 4.000000e+001
         vertex -3.166230e+001 2.009350e+001 4.000000e+001
      endloop
   endfacet
   facet normal 0.000000e+000 0.000000e+000 1.000000e+000
      outer loop
         vertex -3.166230e+001 2.009350e+001 4.000000e+001
         vertex -2.567052e+001 2.733632e+001 4.000000e+001
         vertex -2.889425e+001 2.390340e+001 4.000000e+001
      endloop
   endfacet
   facet normal 0.000000e+000 0.000000e+000 -1.000000e+000
      outer loop
         vertex 1.377728e-014 -3.750000e+001 0.000000e+000
         vertex -4.699996e+000 -3.720430e+001 0.000000e+000
         vertex 0.000000e+000 0.000000e+000 0.000000e+000
      endloop
   endfacet
   facet normal 0.000000e+000 0.000000e+000 -1.000000e+000
      outer loop
         vertex 1.377728e-014 -3.750000e+001 0.000000e+000
         vertex 0.000000e+000 0.000000e+000 0.000000e+000
         vertex 4.699996e+000 -3.720430e+001 0.000000e+000
      endloop
   endfacet
   facet normal 0.000000e+000 0.000000e+000 -1.000000e+000
      outer loop
         vertex 1.806576e+001 -3.286150e+001 0.000000e+000
         vertex 1.380467e+001 -3.486662e+001 0.000000e+000
         vertex 0.000000e+000 0.000000e+000 0.000000e+000
      endloop
   endfacet
   facet normal 0.000000e+000 0.000000e+000 -1.000000e+000
      outer loop
         vertex 0.000000e+000 0.000000e+000 0.000000e+000
         vertex 1.380467e+001 -3.486662e+001 0.000000e+000
         vertex 9.325871e+000 -3.632187e+001 0.000000e+000
      endloop
   endfacet
   facet normal 0.000000e+000 0.000000e+000 -1.000000e+000
      outer loop
         vertex 0.000000e+000 0.000000e+000 0.000000e+000
         vertex 9.325871e+000 -3.632187e+001 0.000000e+000
         vertex 4.699996e+000 -3.720430e+001 0.000000e+000
      endloop
   endfacet
   facet normal 0.000000e+000 0.000000e+000 -1.000000e+000
      outer loop
         vertex 2.889425e+001 -2.390340e+001 0.000000e+000
         vertex 2.567052e+001 -2.733632e+001 0.000000e+000
         vertex 0.000000e+000 0.000000e+000 0.000000e+000
      endloop
   endfacet
   facet normal 0.000000e+000 0.000000e+000 -1.000000e+000
      outer loop
         vertex 0.000000e+000 0.000000e+000 0.000000e+000
         vertex 2.567052e+001 -2.733632e+001 0.000000e+000
         vertex 2.204195e+001 -3.033814e+001 0.000000e+000
      endloop
   endfacet
   facet normal 0.000000e+000 0.000000e+000 -1.000000e+000
      outer loop
         vertex 0.000000e+000 0.000000e+000 0.000000e+000
         vertex 2.204195e+001 -3.033814e+001 0.000000e+000
         vertex 1.806576e+001 -3.286150e+001 0.000000e+000
      endloop
   endfacet
   facet normal 0.000000e+000 0.000000e+000 -1.000000e+000
      outer loop
         vertex 3.566462e+001 -1.158814e+001 0.000000e+000
         vertex 3.393102e+001 -1.596672e+001 0.000000e+000
         vertex 0.000000e+000 0.000000e+000 0.000000e+000
      endloop
   endfacet
   facet normal 0.000000e+000 0.000000e+000 -1.000000e+000
      outer loop
         vertex 0.000000e+000 0.000000e+000 0.000000e+000
         vertex 3.393102e+001 -1.596672e+001 0.000000e+000
         vertex 3.166230e+001 -2.009350e+001 0.000000e+000
      endloop
   endfacet
   facet normal 0.000000e+000 0.000000e+000 -1.000000e+000
      outer loop
         vertex 0.000000e+000 0.000000e+000 0.000000e+000
         vertex 3.166230e+001 -2.009350e+001 0.000000e+000
         vertex 2.889425e+001 -2.390340e+001 0.000000e+000
      endloop
   endfacet
   facet normal 0.000000e+000 0.000000e+000 -1.000000e+000
      outer loop
         vertex 3.742600e+001 2.354645e+000 0.000000e+000
         vertex 3.742600e+001 -2.354645e+000 0.000000e+000
         vertex 0.000000e+000 0.000000e+000 0.000000e+000
      endloop
   endfacet
   facet normal 0.000000e+000 0.000000e+000 -1.000000e+000
      outer loop
         vertex 0.000000e+000 0.000000e+000 0.000000e+000
         vertex 3.742600e+001 -2.354645e+000 0.000000e+000
         vertex 3.683577e+001 -7.026800e+000 0.000000e+000
      endloop
   endfacet
   facet normal 0.000000e+000 0.000000e+000 -1.000000e+000
      outer loop
         vertex 0.000000e+000 0.000000e+000 0.000000e+000
         vertex 3.683577e+001 -7.026800e+000 0.000000e+000
         vertex 3.566462e+001 -1.158814e+001 0.000000e+000
      endloop
   endfacet
   facet normal 0.000000e+000 0.000000e+000 -1.000000e+000
      outer loop
         vertex 3.393102e+001 1.596672e+001 0.000000e+000
         vertex 3.566462e+001 1.158814e+001 0.000000e+000
         vertex 0.000000e+000 0.000000e+000 0.000000e+000
      endloop
   endfacet
   facet normal 0.000000e+000 0.000000e+000 -1.000000e+000
      outer loop
         vertex 0.000000e+000 0.000000e+000 0.000000e+000
         vertex 3.566462e+001 1.158814e+001 0.000000e+000
         vertex 3.683577e+001 7.026800e+000 0.000000e+000
      endloop
   endfacet
   facet normal 0.000000e+000 0.000000e+000 -1.000000e+000
      outer loop
         vertex 0.000000e+000 0.000000e+000 0.000000e+000
         vertex 3.683577e+001 7.026800e+000 0.000000e+000
         vertex 3.742600e+001 2.354645e+000 0.000000e+000
      endloop
   endfacet
   facet normal 0.000000e+000 0.000000e+000 -1.000000e+000
      outer loop
         vertex 2.567052e+001 2.733632e+001 0.000000e+000
         vertex 2.889425e+001 2.390340e+001 0.000000e+000
         vertex 0.000000e+000 0.000000e+000 0.000000e+000
      endloop
   endfacet
   facet normal 0.000000e+000 0.000000e+000 -1.000000e+000
      outer loop
         vertex 0.000000e+000 0.000000e+000 0.000000e+000
         vertex 2.889425e+001 2.390340e+001 0.000000e+000
         vertex 3.166230e+001 2.009350e+001 0.000000e+000
      endloop
   endfacet
   facet normal 0.000000e+000 0.000000e+000 -1.000000e+000
      outer loop
         vertex 0.000000e+000 0.000000e+000 0.000000e+000
         vertex 3.166230e+001 2.009350e+001 0.000000e+000
         vertex 3.393102e+001 1.596672e+001 0.000000e+000
      endloop
   endfacet
   facet normal 0.000000e+000 0.000000e+000 -1.000000e+000
      outer loop
         vertex 1.380467e+001 3.486662e+001 0.000000e+000
         vertex 1.806576e+001 3.286150e+001 0.000000e+000
         vertex 0.000000e+000 0.000000e+000 0.000000e+000
      endloop
   endfacet
   facet normal 0.000000e+000 0.000000e+000 -1.000000e+000
      outer loop
         vertex 0.000000e+000 0.000000e+000 0.000000e+000
         vertex 1.806576e+001 3.286150e+001 0.000000e+000
         vertex 2.204195e+001 3.033814e+001 0.000000e+000
      endloop
   endfacet
   facet normal 0.000000e+000 0.000000e+000 -1.000000e+000
      outer loop
         vertex 0.000000e+000 0.000000e+000 0.000000e+000
         vertex 2.204195e+001 3.033814e+001 0.000000e+000
         vertex 2.567052e+001 2.733632e+001 0.000000e+000
      endloop
   endfacet
   facet normal 0.000000e+000 0.000000e+000 -1.000000e+000
      outer loop
         vertex 0.000000e+000 3.750000e+001 0.000000e+000
         vertex 4.699996e+000 3.720430e+001 0.000000e+000
         vertex 0.000000e+000 0.000000e+000 0.000000e+000
      endloop
   endfacet
   facet normal 0.000000e+000 0.000000e+000 -1.000000e+000
      outer loop
         vertex 0.000000e+000 0.000000e+000 0.000000e+000
         vertex 4.699996e+000 3.720430e+001 0.000000e+000
         vertex 9.325871e+000 3.632187e+001 0.000000e+000
      endloop
   endfacet
   facet normal 0.000000e+000 0.000000e+000 -1.000000e+000
      outer loop
         vertex 0.000000e+000 0.000000e+000 0.000000e+000
         vertex 9.325871e+000 3.632187e+001 0.000000e+000
         vertex 1.380467e+001 3.486662e+001 0.000000e+000
      endloop
   endfacet
   facet normal 0.000000e+000 0.000000e+000 -1.000000e+000
      outer loop
         vertex -1.380467e+001 3.486662e+001 0.000000e+000
         vertex -9.325871e+000 3.632187e+001 0.000000e+000
         vertex 0.000000e+000 0.000000e+000 0.000000e+000
      endloop
   endfacet
   facet normal 0.000000e+000 0.000000e+000 -1.000000e+000
      outer loop
         vertex 0.000000e+000 0.000000e+000 0.000000e+000
         vertex -9.325871e+000 3.632187e+001 0.000000e+000
         vertex -4.699996e+000 3.720430e+001 0.000000e+000
      endloop
   endfacet
   facet normal 0.000000e+000 0.000000e+000 -1.000000e+000
      outer loop
         vertex 0.000000e+000 0.000000e+000 0.000000e+000
         vertex -4.699996e+000 3.720430e+001 0.000000e+000
         vertex 0.000000e+000 3.750000e+001 0.000000e+000
      endloop
   endfacet
   facet normal 0.000000e+000 0.000000e+000 -1.000000e+000
      outer loop
         vertex -2.567052e+001 2.733632e+001 0.000000e+000
         vertex -2.204195e+001 3.033814e+001 0.000000e+000
         vertex 0.000000e+000 0.000000e+000 0.000000e+000
      endloop
   endfacet
   facet normal 0.000000e+000 0.000000e+000 -1.000000e+000
      outer loop
         vertex 0.000000e+000 0.000000e+000 0.000000e+000
         vertex -2.204195e+001 3.033814e+001 0.000000e+000
         vertex -1.806576e+001 3.286150e+001 0.000000e+000
      endloop
   endfacet
   facet normal 0.000000e+000 0.000000e+000 -1.000000e+000
      outer loop
         vertex 0.000000e+000 0.000000e+000 0.000000e+000
         vertex -1.806576e+001 3.286150e+001 0.000000e+000
         vertex -1.380467e+001 3.486662e+001 0.000000e+000
      endloop
   endfacet
   facet normal 0.000000e+000 0.000000e+000 -1.000000e+000
      outer loop
         vertex -3.393102e+001 1.596672e+001 0.000000e+000
         vertex -3.166230e+001 2.009350e+001 0.000000e+000
         vertex 0.000000e+000 0.000000e+000 0.000000e+000
      endloop
   endfacet
   facet normal 0.000000e+000 0.000000e+000 -1.000000e+000
      outer loop
         vertex 0.000000e+000 0.000000e+000 0.000000e+000
         vertex -3.166230e+001 2.009350e+001 0.000000e+000
         vertex -2.889425e+001 2.390340e+001 0.000000e+000
      endloop
   endfacet
   facet normal 0.000000e+000 0.000000e+000 -1.000000e+000
      outer loop
         vertex 0.000000e+000 0.000000e+000 0.000000e+000
         vertex -2.889425e+001 2.390340e+001 0.000000e+000
         vertex -2.567052e+001 2.733632e+001 0.000000e+000
      endloop
   endfacet
   facet normal 0.000000e+000 0.000000e+000 -1.000000e+000
      outer loop
         vertex -3.742600e+001 2.354645e+000 0.000000e+000
         vertex -3.683577e+001 7.026800e+000 0.000000e+000
         vertex 0.000000e+000 0.000000e+000 0.000000e+000
      endloop
   endfacet
   facet normal 0.000000e+000 0.000000e+000 -1.000000e+000
      outer loop
         vertex 0.000000e+000 0.000000e+000 0.000000e+000
         vertex -3.683577e+001 7.026800e+000 0.000000e+000
         vertex -3.566462e+001 1.158814e+001 0.000000e+000
      endloop
   endfacet
   facet normal 0.000000e+000 0.000000e+000 -1.000000e+000
      outer loop
         vertex 0.000000e+000 0.000000e+000 0.000000e+000
         vertex -3.566462e+001 1.158814e+001 0.000000e+000
         vertex -3.393102e+001 1.596672e+001 0.000000e+000
      endloop
   endfacet
   facet normal 0.000000e+000 0.000000e+000 -1.000000e+000
      outer loop
         vertex -3.566462e+001 -1.158814e+001 0.000000e+000
         vertex -3.683577e+001 -7.026800e+000 0.000000e+000
         vertex 0.000000e+000 0.000000e+000 0.000000e+000
      endloop
   endfacet
   facet normal 0.000000e+000 0.000000e+000 -1.000000e+000
      outer loop
         vertex 0.000000e+000 0.000000e+000 0.000000e+000
         vertex -3.683577e+001 -7.026800e+000 0.000000e+000
         vertex -3.742600e+001 -2.354645e+000 0.000000e+000
      endloop
   endfacet
   facet normal 0.000000e+000 0.000000e+000 -1.000000e+000
      outer loop
         vertex 0.000000e+000 0.000000e+000 0.000000e+000
         vertex -3.742600e+001 -2.354645e+000 0.000000e+000
         vertex -3.742600e+001 2.354645e+000 0.000000e+000
      endloop
   endfacet
   facet normal 0.000000e+000 0.000000e+000 -1.000000e+000
      outer loop
         vertex -2.889425e+001 -2.390340e+001 0.000000e+000
         vertex -3.166230e+001 -2.009350e+001 0.000000e+000
         vertex 0.000000e+000 0.000000e+000 0.000000e+000
      endloop
   endfacet
   facet normal 0.000000e+000 0.000000e+000 -1.000000e+000
      outer loop
         vertex 0.000000e+000 0.000000e+000 0.000000e+000
         vertex -3.166230e+001 -2.009350e+001 0.000000e+000
         vertex -3.393102e+001 -1.596672e+001 0.000000e+000
      endloop
   endfacet
   facet normal 0.000000e+000 0.000000e+000 -1.000000e+000
      outer loop
         vertex 0.000000e+000 0.000000e+000 0.000000e+000
         vertex -3.393102e+001 -1.596672e+001 0.000000e+000
         vertex -3.566462e+001 -1.158814e+001 0.000000e+000
      endloop
   endfacet
   facet normal 0.000000e+000 0.000000e+000 -1.000000e+000
      outer loop
         vertex -1.806576e+001 -3.286150e+001 0.000000e+000
         vertex -2.204195e+001 -3.033814e+001 0.000000e+000
         vertex 0.000000e+000 0.000000e+000 0.000000e+000
      endloop
   endfacet
   facet normal 0.000000e+000 0.000000e+000 -1.000000e+000
      outer loop
         vertex 0.000000e+000 0.000000e+000 0.000000e+000
         vertex -2.204195e+001 -3.033814e+001 0.000000e+000
         vertex -2.567052e+001 -2.733632e+001 0.000000e+000
      endloop
   endfacet
   facet normal 0.000000e+000 0.000000e+000 -1.000000e+000
      outer loop
         vertex 0.000000e+000 0.000000e+000 0.000000e+000
         vertex -2.567052e+001 -2.733632e+001 0.000000e+000
         vertex -2.889425e+001 -2.390340e+001 0.000000e+000
      endloop
   endfacet
   facet normal 0.000000e+000 0.000000e+000 -1.000000e+000
      outer loop
         vertex -4.699996e+000 -3.720430e+001 0.000000e+000
         vertex -9.325871e+000 -3.632187e+001 0.000000e+000
         vertex 0.000000e+000 0.000000e+000 0.000000e+000
      endloop
   endfacet
   facet normal 0.000000e+000 0.000000e+000 -1.000000e+000
      outer loop
         vertex 0.000000e+000 0.000000e+000 0.000000e+000
         vertex -9.325871e+000 -3.632187e+001 0.000000e+000
         vertex -1.380467e+001 -3.486662e+001 0.000000e+000
      endloop
   endfacet
   facet normal 0.000000e+000 0.000000e+000 -1.000000e+000
      outer loop
         vertex 0.000000e+000 0.000000e+000 0.000000e+000
         vertex -1.380467e+001 -3.486662e+001 0.000000e+000
         vertex -1.806576e+001 -3.286150e+001 0.000000e+000
      endloop
   endfacet
   facet normal 0.000000e+000 0.000000e+000 -1.000000e+000
      outer loop
         vertex 3.750000e+001 -1.225000e+001 4.000000e+001
         vertex 3.544274e+001 -1.225000e+001 4.000000e+001
         vertex 3.566462e+001 -1.158814e+001 4.000000e+001
      endloop
   endfacet
   facet normal 0.000000e+000 0.000000e+000 -1.000000e+000
      outer loop
         vertex 3.566462e+001 -1.158814e+001 4.000000e+001
         vertex 3.683577e+001 -7.026800e+000 4.000000e+001
         vertex 3.750000e+001 -1.225000e+001 4.000000e+001
      endloop
   endfacet
   facet normal 0.000000e+000 0.000000e+000 -1.000000e+000
      outer loop
         vertex 3.750000e+001 -1.225000e+001 4.000000e+001
         vertex 3.683577e+001 -7.026800e+000 4.000000e+001
         vertex 3.742600e+001 -2.354645e+000 4.000000e+001
      endloop
   endfacet
   facet normal 0.000000e+000 0.000000e+000 -1.000000e+000
      outer loop
         vertex 3.750000e+001 -1.225000e+001 4.000000e+001
         vertex 3.742600e+001 -2.354645e+000 4.000000e+001
         vertex 3.750000e+001 0.000000e+000 4.000000e+001
      endloop
   endfacet
   facet normal 1.000000e+000 0.000000e+000 0.000000e+000
      outer loop
         vertex 4.250000e+001 1.225000e+001 5.200000e+001
         vertex 4.250000e+001 1.225000e+001 6.000000e+001
         vertex 4.250000e+001 -1.225000e+001 5.200000e+001
      endloop
   endfacet
   facet normal 1.000000e+000 0.000000e+000 0.000000e+000
      outer loop
         vertex 4.250000e+001 -1.225000e+001 5.200000e+001
         vertex 4.250000e+001 1.225000e+001 6.000000e+001
         vertex 4.250000e+001 -1.225000e+001 6.000000e+001
      endloop
   endfacet
   facet normal 8.064050e-001 0.000000e+000 5.913637e-001
      outer loop
         vertex 2.050000e+001 1.225000e+001 9.000000e+001
         vertex 2.050000e+001 -1.225000e+001 9.000000e+001
         vertex 4.250000e+001 1.225000e+001 6.000000e+001
      endloop
   endfacet
   facet normal 8.064050e-001 0.000000e+000 5.913637e-001
      outer loop
         vertex 4.250000e+001 1.225000e+001 6.000000e+001
         vertex 2.050000e+001 -1.225000e+001 9.000000e+001
         vertex 4.250000e+001 -1.225000e+001 6.000000e+001
      endloop
   endfacet
   facet normal 9.230769e-001 0.000000e+000 -3.846154e-001
      outer loop
         vertex 3.750000e+001 1.225000e+001 4.000000e+001
         vertex 4.250000e+001 1.225000e+001 5.200000e+001
         vertex 3.750000e+001 1.387779e-014 4.000000e+001
      endloop
   endfacet
   facet normal 9.230769e-001 0.000000e+000 -3.846154e-001
      outer loop
         vertex 3.750000e+001 1.387779e-014 4.000000e+001
         vertex 4.250000e+001 1.225000e+001 5.200000e+001
         vertex 4.250000e+001 -1.225000e+001 5.200000e+001
      endloop
   endfacet
   facet normal 9.230769e-001 0.000000e+000 -3.846154e-001
      outer loop
         vertex 3.750000e+001 1.387779e-014 4.000000e+001
         vertex 4.250000e+001 -1.225000e+001 5.200000e+001
         vertex 3.750000e+001 -1.225000e+001 4.000000e+001
      endloop
   endfacet
   facet normal -8.064050e-001 0.000000e+000 5.913637e-001
      outer loop
         vertex -2.050000e+001 1.225000e+001 9.000000e+001
         vertex -4.250000e+001 1.225000e+001 6.000000e+001
         vertex -2.050000e+001 -1.225000e+001 9.000000e+001
      endloop
   endfacet
   facet normal -8.064050e-001 0.000000e+000 5.913637e-001
      outer loop
         vertex -2.050000e+001 -1.225000e+001 9.000000e+001
         vertex -4.250000e+001 1.225000e+001 6.000000e+001
         vertex -4.250000e+001 -1.225000e+001 6.000000e+001
      endloop
   endfacet
   facet normal -9.230769e-001 0.000000e+000 -3.846154e-001
      outer loop
         vertex -4.250000e+001 1.225000e+001 5.200000e+001
         vertex -3.750000e+001 1.225000e+001 4.000000e+001
         vertex -4.250000e+001 -1.225000e+001 5.200000e+001
      endloop
   endfacet
   facet normal -9.230769e-001 0.000000e+000 -3.846154e-001
      outer loop
         vertex -4.250000e+001 -1.225000e+001 5.200000e+001
         vertex -3.750000e+001 1.225000e+001 4.000000e+001
         vertex -3.750000e+001 1.387779e-014 4.000000e+001
      endloop
   endfacet
   facet normal -9.230769e-001 0.000000e+000 -3.846154e-001
      outer loop
         vertex -4.250000e+001 -1.225000e+001 5.200000e+001
         vertex -3.750000e+001 1.387779e-014 4.000000e+001
         vertex -3.750000e+001 -1.225000e+001 4.000000e+001
      endloop
   endfacet
endsolid